post_title	sku	regular_price	attribute:pa_theme
Φιγούρα Spider-Man Marvel Legends Series Spider-Punk - Hasbro #A6655	HASBE1562A	29.99	Marvel
Φιγούρα Gwenpool Legends Series Marvel - Hasbro #A6655	HASBE1562B	29.99	Marvel
Φιγούρα Marvel Knights Legends Series Punisher- Hasbro #C1517	HASBC1517	34.99	Punisher
Φιγούρα Marvel Knights Legends Series Daredevil - Hasbro #C1517	HASBC1517B	34.99	Punisher
Φιγούρα Marvel Knights Legends Series Jessica Jones - Hasbro #C1517	HASBC1517C	34.99	Punisher
Φιγούρα Spider-Woman Legends Series Marvel - Hasbro #A6655	HASBE1562C	29.99	Marvel
Φιγούρα Marvel Knights Legends Series Bullseye - Hasbro #C1517	HASBC1517D	34.99	Punisher
Φιγούρα Prowler Legends Series Marvel - Hasbro #A6655	HASBE1562D	29.99	Marvel
Φιγούρα Spider-Man Noir Legends Series Marvel - Hasbro #A6655	HASBE1562E	29.99	Marvel
Φιγούρα Mysterio Legends Series Marvel - Hasbro #A6655	HASBE1562F	29.99	Marvel
Φιγούρα Marvel Knights Legends Series Elektra - Hasbro #C1517	HASBC1517L	34.99	Punisher
Φιγούρα Lasher Legends Series Marvel - Hasbro #A6655	HASBE1562S	29.99	Marvel
Φιγούρα Marvel Knights Legends Series Blade - Hasbro #C1517	HASBC1517L-1	34.99	Punisher
POP! Φιγούρα Vinyl Brian O'Conner (Fast &amp; Furious) - Funko #6819	UND06819	14.99	Fast &amp; Furious
POP! Φιγούρα Vinyl Dom Toretto (Fast &amp; Furious) - Funko #6817	UND06817	14.99	Fast &amp; Furious
Φιγούρα Scorpion Legends Series Marvel - Hasbro #A6655	HASBE1562S-1	29.99	Marvel
POP! Φιγούρα Vinyl Gwenom (Marvel) - Funko #28803	UND28803	14.99	Marvel
POP! Φιγούρα Vinyl Kristaps Porzingis (NBA) - Funko #21823	UND21823	14.99	NBA
POP! Σετ Φιγούρες Vinyl Moments Aladin's First Wish (Alladin) - Funko #29375	UND29375	32.99	Aladdin
Σετ Φιγούρες Vynl. Hellboy & Abe Sapien (Hellboy) - Funko #30227	UND30227	24.99	Hellboy
POP! Φιγούρα Vinyl Bill with Flashlight (IT) - Funko #29521	UND29521	14.99	IT
POP! Φιγούρα Vinyl Clark Can't (Garbage Pail Kids) - Funko #26000	UND26000	14.99	Garbage Pail Kids
POP! Φιγούρα Vinyl Adam Bomb (Garbage Pail Kids) - Funko #26003	UND26003	14.99	Garbage Pail Kids
POP! Φιγούρα Vinyl Green Arrow (Smallville) - Funko #30193	UND30193	14.99	Smallville
POP! Φιγούρα Vinyl Lex Luthor (Smallville) - Funko #30190	UND30190	14.99	Smallville
POP! Φιγούρα Vinyl David De Gea (Man United) - Funko #29224	UND29224	14.99	
POP! Φιγούρα Vinyl Romelu Lukaku (Man United) - Funko #29223	UND29223	14.99	
POP! Φιγούρα Vinyl Paul Pogba (Man United) - Funko #29222	UND29222	14.99	
POP! Μπρελόκ Negan (The Walking Dead) - Funko #21189	UND21189	5.99	The Walking Dead
POP! Φιγούρα Vinyl ﻿Harry Herbology (Harry Potter) - Funko #29496	UND29496	14.99	Harry Potter
POP! Φιγούρα Vinyl ﻿Ron Herbology (Harry Potter) - Funko #29501	UND29501	14.99	Harry Potter
POP! Φιγούρα Vinyl ﻿Hermione Herbology (Harry Potter) - Funko #29502	UND29502	14.99	Harry Potter
POP! Φιγούρα Vinyl ﻿Nearly Headless Nick (Blue Trans) (Harry Potter) - Funko #30034	UND30034	14.99	Harry Potter
POP! Φιγούρα Vinyl ﻿Tom Riddle (Harry Potter) - Funko #30032	UND30032	14.99	Harry Potter
POP! Φιγούρα Vinyl ﻿Gilderoy Lockhart (Harry Potter) - Funko #30031	UND30031	14.99	Harry Potter
POP! Φιγούρα Vinyl ﻿Ginny with Diary (Harry Potter) - Funko #29504	UND29504	14.99	Harry Potter
POP! μπρελόκ Sonic with Ring (Sonic) - Funko #20289	UND20289	6.99	Sonic
POP! Φιγούρα Vinyl Eden Hazard (Chelsea) – Funko #29218	UND29218	14.99	
POP! Φιγούρα Vinyl Gary Cahill (Chelsea) – Funko #29219	UND29219	14.99	
POP! Φιγούρα Vinyl Cat Noir with Plagg (Miraculous) – Funko #28638	UND28638	14.99	Miraculous
Φιγούρα Dancing Groot - Hasbro #C0225	HASBC0225	39.99	Guardians of the Galaxy
Avengers Infinity Gauntlet - Hasbro #E1799	HASBE1799	34.99	Avengers: Infinity War
Φιγούρα Thanos Avengers Titan Hero Series - Hasbro #E0572	HASBE0572	21.99	Avengers: Infinity War
Blind Box The Incredibles 2 – Funko #29197	UND29197	7.99	
Σακουλάκι Pint Size Heroes DC: Batman - Funko #10757	UND10757	7.49	
POP! Φιγούρα Vinyl David Luiz (Chelsea) – Funko #29220	UND29220	14.99	
Φιγούρα Kratos (God of War) - Neca #57420	NEC57420	39.99	God of War
Σπαθί μινιατούρα της Τροίας (Troy) - Noble Collection #NN4552	NONN4552	24.99	Troy
POP! Φιγούρα Stan Lee Army General Cameo (Captain America) - Funko #23126	UND23126	19.99	
POP! Φιγούρα Vinyl Jumpscare Bab (Five Nights At Freddy's Sister Location) - Funko #15103	UND15103	16.99	
Φιγούρα Optimus Prime MV6 Studio Series Transformers - Hasbro #E0702	HASBE0702	34.99	Transformers
Φιγούρα Starscream MV6 Studio Series Transformers - Hasbro #E0702	HASBE0702-1	34.99	Transformers
Φιγούρα Grimlock MV6 Studio Series Transformers - Hasbro #E0703	HASBE0703	54.99	Transformers
Φιγούρα Blackout MV6 Studio Series Transformers - Hasbro #E0703	HASBE0703-1	54.99	Transformers
Φιγούρα Autobot Infinitus & Sentinel Transformers - Hasbro #B7769	HASBB7769	29.99	Transformers
Φιγούρα Nucleon & Galvatron Transformers - Hasbro #B7769	HASBB7769-1	29.99	Transformers
Φιγούρα Starscream Transformers - Hasbro #E0598	HASBE0598	26.99	Transformers
Φιγούρα Grimlock Transformers - Hasbro #E0598	HASBE0598-1	26.99	Transformers
Transformers G1 Optimus Prime ST- Imaginarium Art #61155	ART61155	1600	Transformers
Transformers G1 Nemesis ST- Imaginarium Art #61155	ART61155-1	1500	Transformers
POP! Φιγούρα Vinyl Thanos (Avengers: Infinity War) - Funko #28893	UND28893	62.99	Avengers: Infinity War
POP! Φιγούρα Vinyl Sandy Olsson (Grease) - Funko #29440	UND29440	14.99	
POP! Φιγούρα Vinyl Chase (Flocked) Krampus - Funko #21858	UND21858-1	29.99	Krampus
POP! Φιγούρα Vinyl Chase Georgie (IT) - Funko #29520	UND29520-1	29.99	IT
Αλατοπίπερο Deadpool (Marvel) #UND03728	HEO72146-1	12.99	Deadpool
Φιγούρα Serpent Hunter (Aliens vs Predator) - Neca #51541	NEC51541	39.99	Predator
Φιγούρα Predator Stalker Glow In The Dark (Predator) - Neca #51534	NEC51534	37.99	Predator
Φιγούρα Decepticon Revolver & Six Shot Transformers - Hasbro #B7997	HASBE7997	59.99	Transformers
POP! Movie Moments: Rematch On The Supremacy (Star Wars: The Last Jedi) - Funko #30384	UND30384	32.99	Star Wars
POP! Φιγούρα Vinyl Sandy (Carnival) (Grease) - Funko #29441	UND29441	14.99	
Σετ Φιγούρες Vynl. Pennywise and Georgie (IT) – Funko #29257	UND29257	29.99	IT
POP! Φιγούρα Vinyl John Wick - Funko #12535	UND12535	14.99	John Wick
POP! Φιγούρα Vinyl Chase John Wick (Bloody)- Funko #12535	UND12535L	26.99	John Wick
POP! Φιγούρα Vinyl Clark Kent (Smallville) - Funko #30189	UND30189	14.99	Smallville
POP Φιγούρα Vinyl Ike Broflovski (South Park) - Funko #12303	UND12303	14.99	South Park
POP Φιγούρα Vinyl Felyne (Monster Hunters) - Funko #27343	UND27343	14.99	Monster Hunters
POP! Φιγούρα Rathalos (Monster Hunters) – Funko #27342	UND27342	14.99	Monster Hunters
POP! Φιγούρα Chase Funtime Freddy (Five Night's at Freedy's Sister Location) - Funko #13730	UND13730L	38.99	Five Nights at Freddy's
Blind Box X-Men (Marvel) – Funko #11692	UND11692	7.99	
Σακουλάκι Pint Size Heroes Spider-Man (Marvel) - Funko #11155	UND11155	7.49	
POP! Μπρελόκ Newt Scamander (Newt Scamander) - Funko #11267	UND11267	11.99	Fantastic Beasts
Blind Box Stranger Things – Funko #21124	UND21124	7.99	Harry Potter
POP Φιγούρα Vinyl Cornvelious Daniel with Mulan Sauce (Rick and Morty) – Funko #28449	UND28449	14.99	Rick and Morty
Μινιατούρα Legolas (The Lord of the Rings) - Funko #11504	UND11504L2	9.99	Lord of the Rings
Μινιατούρα Gandalf The Grey (The Lord of the Rings) - Funko #11504	UND11504L3	9.99	Lord of the Rings
Σπαθί του Aragorn King Elessar (Lord of the Rings) #HEO01380	HEO01380	490.00	Lord of the Rings
Στέμμα του Aragorn (Lord of the Rings) - Noble Collection #NN9441	NONN9441	270.00	Lord of the Rings
Μινιατούρα Gimli (The Lord of the Rings) - Funko #11504	UND11504L3-1	9.99	Lord of the Rings
POP! Φιγούρα Vinyl Beastly Boyd (Garbage Pail Kids) - Funko #26001	UND26001	14.99	Garbage Pail Kids
POP! Φιγούρα Vinyl Snow White Maid Outfit (Disney: Snow White) – Funko #22505	UND22505	16.99	
POP! Φιγούρα Vinyl Ghastly Ashley (Garbage Pail Kids) - Funko #26002	UND26002	14.99	Garbage Pail Kids
Κούπα με αλλαγή σχεδίου Avengers #HEO45936	HEO45936	15.99	Avengers
POP! Φιγούρα Zinogre (Monster Hunters) – Funko #27341	UND27341	14.99	Monster Hunters
POP! Φιγούρα Vinyl Anthony Davis (NBA) - Funko #21831	UND21831	14.99	NBA
Marvel Avengers: Infinity War Hulk Out Hulkbuster - Hasbro #E0568	HASBE0568	64.99	Avengers: Infinity War
Μινιατούρα Harry Potter - Funko #9657	UND09657-1	9.99	Harry Potter
Μινιατούρα Hermione (Harry Potter) - Funko #9657	UND09657-1-1	9.99	Harry Potter
Μινιατούρα Hagrid (Harry Potter) - Funko #9657	UND09657-1-1-1	9.99	Harry Potter
Μινιατούρα Crookshanks (Harry Potter) - Funko #9657	UND09657-1-1-1-1	9.99	Harry Potter
Επιτραπέζιο Marvel Trouble - Hasbro #B5706	HASBB5706	9.99	Avengers
Φιγούρα Hulkbuster Avengers: Infinity War - Hasbro #E1798	HASBE1798	21.99	Avengers: Infinity War
Μινιατούρα Ron (Harry Potter) - Funko #9657	UND09657-1-2	9.99	Harry Potter
Σετ Φιγούρες Bilbo Baggins & Gollum (Hobbit) #VIV16010	VIV160102	29.99	The Hobbit
Σετ Φιγούρες Legolas & Tauriel (Hobbit) #VIV16010	VIV160102-1	29.99	The Hobbit
Σετ Φιγούρες Kili & Fili (Hobbit) #VIV16010	VIV160102-2	29.99	The Hobbit
Σετ Φιγούρες Balin & Dwalin (Hobbit) #VIV16010	VIV160102-3	29.99	The Hobbit
Φιγούρα Bilbo Baggins (Hobbit) - Neca #46846	NEC46846	49.99	The Hobbit
Κούπα House Flags (Harry Potter) #TIM02977	TIM02977	10.99	Harry Potter
Κούπα God Of War #TIM02735	TIM02735	10.99	God of War
Φιγούρα Bobblehead Gollum (Hobbit) - Joy Toy #33957	JT033957	24.99	The Hobbit
T-Shirt Halloween-Cereal Killer #TIM03825	TIM03825	19.99	
T-Shirt Freddy vs Jason #TIM00241	TIM00241	19.99	
Φιγούρα Bobblehead Bilbo Baggings (Hobbit) - Joy Toy #33958	JT033958	24.99	The Hobbit
Ζακέτα με κουκούλα Punisher #BIO250256	BIO250256	49.99	Punisher
Φιγούρα Bobblehead Gandalf (Hobbit) - Joy Toy #33959	JT033959	24.99	The Hobbit
Avengers Hero Vision Iron Man AR Experience - Hasbro #E0849	HASBE0849	49.99	Avengers: Infinity War
Φιγούρα Jack-Jack με ήχο (Incredibles 2) – Thinkway Toys #00393	MTW00393	49.99	The Incredibles
Φιγούρα Son με ήχο (Incredibles 2) – Thinkway Toys #00383	MTW00383	49.99	The Incredibles
Φιγούρα Mom με ήχο (Incredibles 2) – Thinkway Toys #00382	MTW00382	54.99	The Incredibles
Φιγούρα Dad με ήχο (Incredibles 2) – Thinkway Toys #00381	MTW00381	64.99	The Incredibles
Κούπα Avengers #REN36001	REN36001	6.99	Avengers
Φιγούρα Azog (Hobbit) #VIV16000	VIV16000	19.99	The Hobbit
Φιγούρα Legolas (Hobbit) #VIV16000	VIV16000-1	29.99	The Hobbit
Φιγούρα Gandalf (Hobbit) #VIV16000	VIV16000-3	19.99	The Hobbit
Φιγούρα Radagast (Hobbit) #VIV16000	VIV16000-4	39.99	The Hobbit
Φιγούρα Bilbo Baggins (Hobbit) #VIV16000	VIV16000-5	29.99	The Hobbit
Φιγούρα Thorin (Hobbit) #VIV16000	VIV16000-6	29.99	The Hobbit
Blind Box Ραβδί Harry Potter – Jakks Pacific #50157	JPA50157	5.99	Harry Potter
Mystery Minis Captain America– Funko #4724	UND28816-2	7.99	
Blind Box The Incredibles 2 – Funko #29196	UND29196	9.99	
Ραβδί εκπαίδευσης Harry Potter με φως και ήχο (Harry Potter) - Jakks Pacific #73195	JPA73195	39.99	Harry Potter
Ραβδί εκπαίδευσης Dumbledore με φως και ήχο (Harry Potter) - Jakks Pacific #73212	JPA73212	39.99	Harry Potter
Κουμπαράς Asterix - Plastoy #80039	PLA80039	24.99	
Κουμπαράς Obelix - Plastoy #80040	PLA80040	24.99	
Wizbox Hobbit	VIV160008	39.99	The Hobbit
Σετ Φιγούρες Fimbul & Warg (Hobbit) #VIV16021 [Damaged Package]	VIV16021	29.99	The Hobbit
Κούπα Batman Arkham Knight Teaser #TIM23081	TIM23081	10.99	Batman
Κούκλα Dark Beauty Maleficent Disney - Jakks Pacific #82814	JPA82814	34.99	
POP! Φιγούρα Vinyl Luke Cage (Marvel) – Funko #11195	UND11195	14.99	Marvel
Φιγούρα Master Chief (Halo) - Jakks Pacific #90836	JPA90836	89.90	
Φιγούρα Deadpool (Marvel) #HEO21511	HEO21511	18.99	
POP! Φιγούρα Vinyl Porkchop Disney – Funko #25703	UND25703	14.99	
POP! Φιγούρα Vinyl Ladybug with Tikki (Miraculous) - Funko #28637	UND28637	14.99	Miraculous
POP! Φιγούρα Vinyl Deadpool Bob Ross Marvel – Funko #30865	UND30865	14.99	Deadpool
Σκούφος God of War #BIO121608	BIO121608	21.99	God of War
Μπρελόκ μεταλλικό God of War World Snake #BIO141084	BIO141084	9.99	God of War
Μπρελόκ μεταλλικό God of War #BIO253314	BIO253314	9.99	God of War
Καπέλο God of War #BIO645245	BIO645245	24.99	God of War
Blind Box Harry Potter – Funko #31021	UND31021	9.99	Harry Potter
Μπρελόκ μεταλλικό Ant-Man &amp; The Wasp Helmet #BIO283025	BIO283025	9.99	Ant-man
Blind Box Rick & Morty – Funko #29235	UND29235	7.99	Rick and Morty
POP! Φιγούρα Vinyl Mike Hanlon (IT) - Funko #30020	UND30020	14.99	IT
Μπρελόκ μεταλλικό Spiderman με λογότυπο Venom #BIO101437	BIO101437	9.99	Spiderman
POP! Φιγούρα Vinyl Stanley Uris (IT) - Funko #30021	UND30021	14.99	IT
POP! Φιγούρα Vinyl Master Chief with Cortana (Halo) - Funko #30099	UND30099	14.99	Halo
POP! Φιγούρα Vinyl Orbital Drop Shock Trooper Buck (Helmeted) (Halo) - Funko #30100	UND30100	14.99	Halo
POP! Φιγούρα Vinyl Sgt. Johnson (Halo) - Funko #30101	UND30101	14.99	Halo
POP! Φιγούρα Dr. Stygimoloch (Jurassic World) – Funko #30982	UND30982	14.99	Jurassic World
POP! Φιγούρα Indoraptor (Jurassic World) – Funko #30984	UND30984	14.99	Jurassic World
Φιγούρα Captain America Avengers Movie Titan Hero - Hasbro #E0607	HASBE0568-1	24.99	Avengers: Infinity War
Marvel Avengers: Infinity War Iron Man vs. Thanos Battle Set - Hasbro #E0559	HASBE0559	34.99	Avengers: Infinity War
Φιγούρα Thor Movie Electronic - Hasbro #B9970	HASBB9970	29.99	Thor: Ragnarok
POP! Φιγούρα Vinyl Ed Sheeran - Funko #29529	UND29529	14.99	
POP! Φιγούρα Vinyl Kevin Durant (NBA) - Funko #21804	UND21804	49.99	
Blind Box Deadpool (Marvel) – Funko #30975	UND30975	7.99	Deadpool
POP! Φιγούρα Vinyl Lois Lane (Smallville) - Funko #30194	UND30194	14.99	Smallville
POP! Μπρελόκ Jack-Jack (Disney: The Incredibles 2) - Funko #29962	UND29962	5.99	The Incredibles
POP! Φιγούρα Zuko Sweater (Grease) - Funko #29443	UND29443	14.99	
POP! Φιγούρα Vinyl Isaiah Thomas (NBA) - Funko #21807	UND21807	14.99	
POP! Φιγούρα Vinyl Chris Paul (NBA) - Funko #21809	UND21809	14.99	
POP! Φιγούρα Vinyl Kawhi Leonard (NBA) - Funko #21824	UND21824	14.99	
POP! Φιγούρα Vinyl Kyrie Irving (NBA) - Funko #21827	UND21827	14.99	
POP! Φιγούρα Vinyl Klay Thompson (NBA) - Funko #21829	UND21829	14.99	
POP! Φιγούρα Vinyl Damian Lillard (NBA) - Funko #21830	UND21830	14.99	
Transformers MV5 Optimus Prime Voice Changer Helmet - Hasbro #C0878	HASBC0878	59.99	Transformers
Marvel Avengers: Infinity War Titan Hero Power FX Star-Lord - Hasbro #E0611	HASBE0611	24.99	Avengers: Infinity War
Avengers Titan Hero Black Widow - Hasbro #E0614	HASBE0614	24.99	Avengers: Infinity War
Κούπα Hobbit #MU000546	MU000546	14.99	The Hobbit
Κούπα Bilbo Baggins Hobbit #MU000548	MU000548	14.99	The Hobbit
Κούπα Thorin Hobbit #MU000547	MU000547	14.99	The Hobbit
POP! Φιγούρα Vinyl Ant-Man (Ant-Man &amp; The Wasp) - Funko #30724	UND30724	14.99	
POP! Φιγούρα Vinyl Wasp (Ant-Man &amp; The Wasp) - Funko #30730	UND30730	14.99	
POP! Φιγούρα Vinyl Ghost (Ant-Man &amp; The Wasp) - Funko #30746	UND30746	14.99	
POP! Φιγούρα Vinyl Future Trunks Super Saiyan (Dragonball) - Funko #24814	UND24814	16.99	DragonBall
POP! Φιγούρα Vinyl Crisis Outfit (Sailor Moon) - Funko #23892	UND23892	16.99	Sailor Moon
POP! Φιγούρα Vinyl Martha Wayne Joker (DC) - Funko #14402	UND14402	16.99	
POP! Φιγούρα Vinyl Hades Glow in the Dark (Hercules) - Funko #29343	UND29343	16.99	
POP! Φιγούρα Vinyl Pennywise with Severed Arm (IT) - Funko #29527	UND29527	16.99	IT
POP! Φιγούρα Vinyl King Aragorn (LOTR) - Funko #27369	UND27369	17.99	Lord of the Rings
POP! Φιγούρα Vinyl Sombra Translucent (Overwatch) - Funko #29146	UND29146	16.99	Overwatch
POP! Φιγούρα Vinyl Abu Flocked (Disney: Aladdin) - Funko #24925	UND24925	20.99	Aladdin
Μινιατούρα Aquaman (Justice League) – Funko #15204	UND15204-1	9.99	Justice League
Μινιατούρα Wonder Woman (Justice League) – Funko #15204	UND15204-2	9.99	Justice League
Μινιατούρα Steppenwolf (Justice League) – Funko #15204	UND15204-3	9.99	Justice League
Μινιατούρα Flash (Justice League) – Funko #15204	UND15204-5	9.99	Justice League
Μινιατούρα Deadpool (Marvel) – Funko #30975	UND30975-1	9.99	Deadpool
Μινιατούρα Flash (Justice League) – Funko #15204	UND15204-5-1	9.99	Justice League
POP! Μπρελόκ Elastigirl (Disney: The Incredibles 2) – Funko #29961	UND29961	5.99	The Incredibles
POP! Φιγούρα Vinyl Dumbo (Disney) - Funko #34216	UND34216	14.99	
POP! Φιγούρα Vinyl Ben with Burnt Easter Egg (IT) – Funko #29522	UND29522	14.99	IT
POP! Φιγούρα Vinyl Chase Ant-Man (Ant-Man &amp; The Wasp) - Funko #30724	UND30724L	26.99	
Μινιατούρα Deadpool (Marvel) – Funko #30975	UND30975-1-1	9.99	Deadpool
Μινιατούρα Deadpool (Marvel) – Funko #30975	UND30975-1-1-1	9.99	Deadpool
Μινιατούρα Deadpool (Marvel) – Funko #30975	UND30975-1-1-1-1	9.99	Deadpool
Μινιατούρα Deadpool (Marvel) – Funko #30975	UND30975-1-1-1-1-1	9.99	Deadpool
Μινιατούρα Deadpool (Marvel) – Funko #30975	UND30975-1-1-1-1-1-1	9.99	Deadpool
Μινιατούρα Deadpool (Marvel) – Funko #30975	UND30975-1-1-1-1-1-1-1	9.99	Deadpool
POP! Φιγούρα Vinyl Winnie the Pooh (Christopher Robin) – Funko #32090	UND32090	14.99	Christopher Robin
POP! Φιγούρα Vinyl Eeyore (Christopher Robin) – Funko #32089	UND32089	14.99	Christopher Robin
POP! Φιγούρα Vinyl Tigger (Christopher Robin) – Funko #32352	UND32352	14.99	Christopher Robin
Φιγούρα Roronoa Zoro (One Piece) #ABY00120	ABY00120	14.99	One Piece
Μινιατούρα Harry Potter – Funko #31021	UND31021-1	9.99	Harry Potter
Μινιατούρα Fleur Delacour (Harry Potter) – Funko #31021	UND31021-1-1	9.99	Harry Potter
Μινιατούρα Viktor Krum (Harry Potter) – Funko #31021	UND31021-1-1-1	9.99	Harry Potter
Μινιατούρα Mad-Eye Moody (Harry Potter) – Funko #31021	UND31021-1-1-1-1	9.99	Harry Potter
Μινιατούρα Cedric Diggory (Harry Potter) – Funko #31021	UND31021-1-1-1-2	9.99	Harry Potter
Μινιατούρα Draco Malfoy (Harry Potter) – Funko #31021	UND31021-1-1-1-2-1	9.99	Harry Potter
Μινιατούρα Mrs. Norris (Harry Potter) – Funko #31021	UND31021-1-1-1-2-1-1	9.99	Harry Potter
Μινιατούρα Gregory Goyle (Harry Potter) – Funko #31021	UND31021-1-1-1-2-1-1-1	9.99	Harry Potter
Μινιατούρα Thor (Thor: Ragnarok) - Funko #20559	UND20559-1	9.99	Thor: Ragnarok
Μινιατούρα Heimdall (Thor: Ragnarok) – Funko #20559	UND20559-1-1	9.99	Thor: Ragnarok
Μινιατούρα Valkyrie (Thor: Ragnarok) – Funko #20559	UND20559-1-1-1	9.99	Thor: Ragnarok
T-Shirt Lord of the Rings - Gold Foil Logo #CID17381	CID17381	19.99	
Μινιατούρα Hulk (Thor: Ragnarok) – Funko #20559	UND20559-1-1-1-1	9.99	Thor: Ragnarok
Μινιατούρα Odin (Thor: Ragnarok) – Funko #20559	UND20559-1-1-1-1-1	9.99	Thor: Ragnarok
Μινιατούρα Surtur (Thor: Ragnarok) – Funko #20559	UND20559-1-1-1-1-1-1	9.99	Thor: Ragnarok
Μινιατούρα Loki (Thor: Ragnarok) – Funko #20559	UND20559-1-1-1-1-1-1-1	9.99	Thor: Ragnarok
Μινιατούρα Bruce Banner (Thor: Ragnarok) – Funko #20559	UND20559-1-1-1-1-1-1-1-1	9.99	Thor: Ragnarok
Μινιατούρα Sakaarian Guard (Thor: Ragnarok) – Funko #20559	UND20559-1-1-1-1-1-1-1-1-1	9.99	Thor: Ragnarok
Μινιατούρα Topaz (Thor: Ragnarok) – Funko #20559	UND20559-1-1-1-1-1-1-1-1-1-1	9.99	Thor: Ragnarok
Μινιατούρα Spider-Man (Marvel) - Funko #13795	UND13795-1	9.99	Spider-Man
Μινιατούρα Lizard (Marvel) - Funko #13795	UND13795-2	9.99	Spider-Man
Μινιατούρα Venom (Marvel) - Funko #13795	UND13795-3	9.99	Spider-Man
Σπαθί Eddard Stark (Game of Thrones) #HEO00109	HEO00109	480	Game of Thrones
Σημειωματάριο Harry Potter #PAL03859	PAL03859	9.99	Harry Potter
#03 Wizbox The Lord of the Rings	WizboxTheLordoftheRings	49.99	
Ποτήρι με αλλαγή σχεδίου Hogwarts (Harry Potter) - Paladone #PP3211HP	PAL03211	14.99	Harry Potter
Θερμός Hogwarts (Harry Potter) - Paladone #PP3304HP	PAL03304	19.99	Harry Potter
Φωτιστικό Hogwarts (Harry Potter) - Paladone #PP3215HP	PAL03215	14.99	Harry Potter
Σουβέρ μεταλλικά Harry Potter (4 Τεμάχια) - Paladone #PP4257HP	PAL04257	11.99	Harry Potter
Κούπα με αλλαγή σχεδίου Patronus (Harry Potter) - Paladone #PP3940HP	PAL03940	14.99	Harry Potter
Κούπα Golden Snitch (Harry Potter) - Paladone #PP3860HP	PAL03860	10.99	Harry Potter
POP! Φιγούρα Vinyl ﻿All Might Weakened (My Hero Academia) - Funko #32127	UND32127	14.99	My Hero Academia
POP! Φιγούρα Vinyl ﻿Todoroki (My Hero Academia) - Funko #32128	UND32128	14.99	My Hero Academia
POP! Φιγούρα Vinyl ﻿Deku Training (My Hero Academia) - Funko #32129	UND32129	14.99	My Hero Academia
POP! Φιγούρα Vinyl ﻿Tsuyu (My Hero Academia) - Funko #32134	UND32134	14.99	My Hero Academia
POP! Φιγούρα Vinyl ﻿Shota Aizawa (My Hero Academia) - Funko #32135	UND32135	14.99	My Hero Academia
Σουβέρ μεταλλικά Assassin’s Creed (4 Τεμάχια) - Paladone #PP4100AS	PAL04100	11.99	Assassin's Creed
Σημειωματάριο Assassin's Creed - Paladone #PP4101AS	PAL04101	9.99	Assassin's Creed
Θερμός Assassin's Creed - Paladone #PP4099AS	PAL04099	14.99	Assassin's Creed
Τράπουλα Call of Duty - Paladone #PP4076COD	PAL04076	9.99	Call of Duty
Θερμός Call of Duty - Paladone #PP4080COD	PAL04080	14.99	Call of Duty
Σουβέρ μεταλλικά Call of Duty (4 Τεμάχια) - Paladone #PP4077COD	PAL04077	11.99	Call of Duty
Κούπα με αλλαγή σχεδίου Nuketown (Call of Duty) – Paladone #PP4078COD	PAL04078	14.99	Call of Duty
Σημειωματάριο Call of Duty – Paladone #PP4075COD	PAL04075	9.99	Call of Duty
Παγούρι Call of Duty – Paladone #PP4071COD	PAL04071	9.99	Call of Duty
Θερμός Batman - Paladone #PP2618BM	PAL02618	19.99	Batman
Σουβέρ μεταλλικά Batman (4 Τεμάχια) - Paladone #PP4116BM	PAL04116	11.99	Batman
Αυτοκόλλητα Harry Potter - Paladone #PP3210HP	PAL03210	9.99	Harry Potter
Σημειωματάριο Harry Potter (2 Τεμάχια) - Paladone #PP4236HP	PAL04236	7.99	Harry Potter
Φωτιστικό Hufflepuff (Harry Potter) - Paladone #PP3895HP	PAL03895	29.99	Harry Potter
Monopoly Deadpool - Hasbro #E2033102	HASE2033102	49.99	Deadpool
Φωτιστικό Ravenclaw (Harry Potter) - Paladone #PP3896HP	PAL03896	29.99	Harry Potter
Φωτιστικό Slytherin (Harry Potter) – Paladone #PP3897HP	PAL03897	29.99	Harry Potter
Κούπα με αλλαγή σχεδίου Hogwarts (Harry Potter) – Paladone #PP3939HP	PAL03939	14.99	Harry Potter
Κούπα με αλλαγή σχεδίου Voldemort (Harry Potter) – Paladone #PP4588HP	PAL04588	14.99	Harry Potter
Τράπουλα Playstation - Paladone #PP4137PS	PAL04137	9.99	
Κούπα Hyrule - Paladone #PP3021NN	PAL03021	9.99	Legend of Zelda
Θερμός Link (Legend of Zelda) - Paladone #PP3241NN	PAL03241	14.99	Legend of Zelda
Σουβέρ μεταλλικά Playstation (4 Τεμάχια) - Paladone #PP4134PS	PAL04134	11.99	
Μπρελόκ 3D μεταλλικό Playstation - Paladone #PP4132PS	PAL04132	9.99	
Κούπα με αλλαγή σχεδίου Playstation - Paladone #PP4130PS	PAL04130	14.99	
Θερμός Playstation - Paladone #PP4127PS	PAL04127	14.99	
Μινιατούρα Thestral (Harry Potter) – Funko #14722	UND14722-1	9.99	Harry Potter
Μινιατούρα Professor Snape (Harry Potter) – Funko #14722	UND14722-2	9.99	Harry Potter
Μινιατούρα Weasley with Sorting Hat (Harry Potter) – Funko #14722	UND14722-3	9.99	Harry Potter
Μινιατούρα Harry Potter with Sorting Hat – Funko #14722	UND14722-4	9.99	Harry Potter
Μινιατούρα Dementor (Harry Potter) – Funko #14722	UND14722-5	9.99	Harry Potter
Μινιατούρα Pigwidgeon (Harry Potter) – Funko #14722	UND14722-6	9.99	Harry Potter
Μινιατούρα Luna Lovegood (Harry Potter) – Funko #14722	UND14722-7	9.99	Harry Potter
Μινιατούρα Grindylow (Harry Potter) – Funko #14722	UND14722-8	9.99	Harry Potter
Μινιατούρα Bellatrix Lestrange (Harry Potter) – Funko #14722	UND14722-9	9.99	Harry Potter
Μινιατούρα Hermione Granger (Harry Potter) – Funko #14722	UND14722-10	9.99	Harry Potter
Μινιατούρα Remus Lupin (Harry Potter) – Funko #14722	UND14722-11	9.99	Harry Potter
Μινιατούρα Hungarian Horntail (Harry Potter) – Funko #14722	UND14722-12	9.99	Harry Potter
POP! Φιγούρα Vinyl Pudge (Dota) - Funko #30627	UND30627	14.99	Dota
Λούτρινο 15εκ. Captain America (Avengers) - Funko #5076	UND05076	29.99	Avengers
Λούτρινο Rocket Raccoon (Guardians of the galaxy) - Funko #4368	UND04368	17.99	Guardians of the Galaxy
Λούτρινο 15εκ. Iron Man (Avengers) - Funko #5078	UND05078	29.99	Avengers
POP! Φιγούρα Vinyl Juggernaut (Dota) - Funko #30625	UND30625	14.99	Dota
POP! Φιγούρα Vinyl Phantom Assassin (Dota) - Funko #30628	UND30628	14.99	Dota
POP! Φιγούρα Vinyl Kylo Ren (Star Wars) – Funko #6227	UND06227	14.99	Star Wars
POP! Φιγούρα Vinyl Beverly with Key Necklace (IT) - Funko #29523	UND29523	14.99	IT
POP! Φιγούρα Danny Zuko (Grease) – Funko #29442	UND29442	14.99	
Rock Candy Φιγούρα Albus Dumbledore (Harry Potter) - Funko #30508	UND30508	16.99	Harry Potter
Rock Candy Φιγούρα Lord Voldemort (Harry Potter) – Funko #30287	UND30287	16.99	Harry Potter
Rock Candy Φιγούρα Ron in Quidditch Uniform (Harry Potter) – Funko #30286	UND30286	16.99	Harry Potter
POP! Φιγούρα Vinyl (Chase) Beverly with Key Necklace (IT) - Funko #29523	UND29523-C	24.99	IT
Μινιατούρα Hulkbuster Marvel Avengers: Infinity War - Funko #26896	UND26896-1	9.99	Avengers: Infinity War
Μινιατούρα Gamora Marvel Avengers: Infinity War - Funko #26896	UND26896-2	9.99	Avengers: Infinity War
Μινιατούρα Thanos Marvel Avengers: Infinity War - Funko #26896	UND26896-3	9.99	Avengers: Infinity War
Μινιατούρα Cull Obsidian Marvel Avengers: Infinity War - Funko #26896	UND26896-4	9.99	Avengers: Infinity War
T-Shirt Batman: Dark Knight - Why so Serious #CID11830	CID11830	19.99	
Μινιατούρα Iron Man Marvel Avengers: Infinity War - Funko #26896	UND26896-5	9.99	Avengers: Infinity War
Μινιατούρα Ebony Maw Marvel Avengers: Infinity War - Funko #26896	UND26896-6	9.99	Avengers: Infinity War
Μινιατούρα Hulk Marvel Avengers: Infinity War - Funko #26896	UND26896-7	9.99	Avengers: Infinity War
Μινιατούρα Black Panther Marvel Avengers: Infinity War - Funko #26896	UND26896-8	9.99	Avengers: Infinity War
Μινιατούρα Thor Marvel Avengers: Infinity War - Funko #26896	UND26896-9	9.99	Avengers: Infinity War
Φιγούρα Deadpool Marvel Legends Series – Hasbro #C1474	HASBC1474	79.99	Deadpool
Φιγούρα Stinger Transformers Studio Series Premier Deluxe - Hasbro #E0701	HASBE0701	24.99	Transformers
Φιγούρα Bumblebee Transformers Studio Series Premier Deluxe - Hasbro #E0701	HASBE0701-2	24.99	Transformers
Φιγούρα Crowbar Transformers Studio Series Premier Deluxe - Hasbro #E0701	HASBE0701-3	24.99	Transformers
Φιγούρα Ratchet Transformers Studio Series Premier Deluxe - Hasbro #E0701	HASBE0701-4	24.99	Transformers
POP! Φιγούρα Vinyl ﻿Sanji (One Piece) - Funko #32715	UND32715	14.99	One Piece
POP! Φιγούρα Vinyl ﻿Nico Robin (One Piece) - Funko #32716	UND32716	14.99	One Piece
POP! Φιγούρα Vinyl ﻿Usopp (One Piece) - Funko #32717	UND32717	14.99	One Piece
POP! Φιγούρα Vinyl DQ Doflamingo (One Piece) - Funko #32718	UND32718	14.99	One Piece
Q-Fig Φιγούρα Jessica Jones Marvel - QMx #23013	HEO002301	17.99	
Q-Fig Φιγούρα Batman Rebirth (DC Comics) - QMx #23549	HEO00606	25.99	
Φιγούρα Megatron Transformers MV5 Premier Voyager - Hasbro #C0891	HASBC0891	34.99	Transformers
Φιγούρα Autobot Hound Transformers MV5 Premier Voyager - Hasbro #C0891	HASBC0891-2	34.99	Transformers
Φιγούρα Scattershot Transformers Generations Voyager - Hasbro #B0975	HASBB0975	29.99	Transformers
Q-Fig Φιγούρα Doctor Strange (Marvel) - QMx #22665	HEO002266	17.99	
Q-Fig Φιγούρα Wonder Woman (Justice League) - QMx #23907	HEO00604	24.99	
Κούπα Punisher (Marvel) - Pyramid #MG24925	PYR24925	9.99	Punisher
Κούπα Cauldron (Harry Potter) - Pyramid #SCMG24474	PYR24474	19.99	Harry Potter
Κούπα Harry Potter - Pyramid #MG22379	PYR22379	9.99	Harry Potter
Κούπα Decepticons (Transformers: The Last Knight) - Pyramid #MG24705	PYR24705	9.99	Transformers
Κούπα Bumblebee (Transformers: The Last Knight) - Pyramid #MG24707	PYR24707	9.99	Transformers
Κούπα Autobots (Transformers: Last Knight) - Pyramid #MG24704	PYR24704	9.99	Transformers
Κούπα 3D Decepticons Logo (Transformers G1) - Pyramid #SCMG24361	PYR24361	19.99	Transformers
Κούπα 3D Autobots Logo (Transformers G1) - Pyramid #SCMG24360	PYR24360	19.99	Transformers
Σημειωματάριο Α5 Optimus Prime (Transformers G1) - Pyramid #SR72365	PYR72365	14.99	Transformers
Σημειωματάριο Α5 Bumblebee (Transformers G1) - Pyramid #SR72364	PYR72364	14.99	Transformers
Σημειωματάριο Α5 Punisher (Marvel) - Pyramid #SR72517	PYR72517	14.99	Punisher
Σημειωματάριο Α5 Gryffindor (Harry Potter) - Pyramid #SR72411	PYR72411	14.99	Harry Potter
Σημειωματάριο Α5 Slytherin (Harry Potter) - Pyramid #SR72412	PYR72412	14.99	Harry Potter
Σημειωματάριο Α5 Ravenclaw (Harry Potter) - Pyramid #SR72413	PYR72413	14.99	Harry Potter
Σημειωματάριο Α5 Hufflepuff (Harry Potter) - Pyramid #SR72414	PYR72414	14.99	Harry Potter
Κούπα με αλλαγή σχεδίου Ραβδιά (Harry Potter) - Paladone #PP3868HP	PAL03868	14.99	Harry Potter
Κούπα Hermione Granger (Harry Potter) - Pyramid #MG22381	PYR22381	9.99	Harry Potter
Κούπα Ron Weasly (Harry Potter) - Pyramid #MG22380	PYR22380	9.99	Harry Potter
Κούπα Hogwarts Crest (Harry Potter) - Pyramid #MG22060	PYR22060	9.99	Harry Potter
Κούπα Severus Snape (Harry Potter) - Pyramid #MG23866	PYR23866	9.99	Harry Potter
Κούπα Wanted Poster (Harry Potter) - Pyramid #MG24173	PYR24173	9.99	Harry Potter
Puzzle Marauder's Map - Noble Collection #NN9457	NONN9457	29.99	Harry Potter
Κούπα με αλλαγή σχεδίου Marauder's Map (Harry Potter) - Pyramid #SCMG24333	PYR24333	14.99	Harry Potter
Κούπα με καπάκι Hogwarts (Harry Potter) - Pyramid #MG22896	PYR22896	17.99	Harry Potter
Κούπα με καπάκι Gryffindor (Harry Potter) - Pyramid #MG22897	PYR22897	17.99	Harry Potter
Σουβέρ Harry Potter - Pyramid #CSP0007	PYR00007	5.99	Harry Potter
Σημειωματάριο Α5 Deadpool - Pyramid #SR72518	PYR72518	7.99	Deadpool
"Σημειωματάριο A5 Deadpool ""Splatter"" (Deadpool) - Pyramid #SR72395"	PYR72395	14.99	Deadpool
Αυτοκόλλητα Deadpool - Pyramid #PS7285	PYR07285	1.99	Deadpool
Σημειωματάριο Α5 Game of Thrones Sigils - Pyramid #SR72419	PYR72419	14.99	Game of Thrones
Σημειωματάριο Α5 Stark Sigil (Game of Thrones) - Pyramid #SR72522	PYR72522	14.99	Game of Thrones
Σημειωματάριο Α5 Stark and Targaryen (Game of Thrones) - Pyramid #SR72435	PYR72435	7.99	Game of Thrones
Σουβέρ Game of Thrones - Pyramid #CSP0005	PYR00005	5.99	Game of Thrones
Q-Fig Φιγούρα Deadpool X-Force Variant LC Marvel - QMx #21767	HEO0021767	17.99	
Q-Fig Φιγούρα Loki Marvel Thor Ragnarok - QMx #23921	HEO0023921	22.99	
Q-Fig Φιγούρα Joker Batman The Killing Joke - QMx #9348	HEO009348	23.99	
Q-Fig Φιγούρα Deadpool Unicorn Selfie Marvel - QMx #21006	HEO00210006	23.99	
T-Shirt Death Note #TIM08951	TIM08951	19.99	Death Note
T-Shirt My Hero Academia #TIM08960	TIM08960	19.99	My Hero Academia
Σημειωματάριο A5 Quibbler (Harry Potter) - Pyramid #SR72236	PYR72236	4.99	Harry Potter
Σημειωματάριο A5 Κοινότητες Hogwarts (Harry Potter) - Pyramid #SR72083	PYR72083	4.99	Harry Potter
Σημειωματάριο Α5 Marauder's Map (Harry Potter) - Pyramid #SR72325	PYR72325	4.99	Harry Potter
Σημειωματάριο Α5 Wanted Sirius Black (Harry Potter) - Pyramid #SR72252	PYR72252	4.99	Harry Potter
Σημειωματάριο Α5 Newt Scamander (Fantastic Beasts) - Pyramid #SR72237	PYR72237	9.99	Fantastic Beasts
POP! Φιγούρα Vinyl Steve with Sunglasses (Stranger Things) - Funko #30877	UND30877	14.99	Stranger Things
POP! Φιγούρα Vinyl ﻿Luke Skywalker (final Battle) (Star Wars) - Funko #31788	UND31788	14.99	Star Wars
POP! Σετ Φιγούρες Vinyl Chiaotzu & Tien (Dragonball Z) - Funko #32254	UND32254	14.99	DragonBall
POP! Φιγούρα Vinyl Chase Wasp (Ant-Man &amp; The Wasp) - Funko #30730	UND30730-1	24.99	
POP! Φιγούρα Vinyl T'challa Black Panther (Marvel) - Funko #31287	UND31287	14.99	Marvel
POP! Φιγούρα Vinyl ﻿Caretaker (Star Wars) - Funko #31792	UND31792	14.99	Star Wars
Rock Candy Φιγούρα Harry Potter – Funko #30284	UND30284	16.99	Harry Potter
Κούκλα με ήχο Freddy Krueger (Nightmare On Elm Street) - Mezco Toyz #99400	COS99400	69.99	A Nightmare on Elm Street
Κούκλα Annabelle (The Conjuring) - Mezco Toyz #90500	HEO90500	149.99	
Κούκλα με ήχο Jason Voorhees (Friday the 13th) - Mezco Toyz #25870	COS25870	129.99	
Μάσκα Jason Friday the 13th - NECA #22834	COS22834	49.99	Friday the 13th
Aragog in the Forbidden Forest (Harry Potter) - Lego #75950	LE075950	19.99	Harry Potter
Hogwarts Whomping Willow (Harry Potter) - Lego #75953	LE075953	79.99	Harry Potter
Hogwarts Great Hall (Harry Potter) - Lego #75954	LE075954	109.99	Harry Potter
Grindelwald's Escape (Fantastic Beasts) - Lego #75951	LE075951	32.99	Fantastic Beasts
Confidential Fantastic Beasts (Fantastic Beasts) - Lego #75952	LE075952	54.99	Fantastic Beasts
Φιγούρα Punisher TV Series Marvel - Diamond Select #28243	DIAMJAN182377	59.99	Punisher
Φιγούρα Deadpool Marvel Gallery PVC Taco Truck - Diamond Select #31472	DIAMMAR182429	54.99	Deadpool
Σημειωματάριο A5 Rick and Morty Portal (Rick and Morty) - Pyramid #SR72404	PYR72404	4.99	Rick and Morty
Αυτοκόλλητα My Hero Academia - Pyramid #PS7392	PYR07392	1.99	My Hero Academia
Κούπα Character Burst (My Hero Academia) - Pyramid #MG24982	PYR24982	9.99	My Hero Academia
Κούπα Pennywise & Georgie (IT 2017) - Pyramid #MG25080	PYR25080	9.99	IT
Κούπα Red Marvel Logo (Marvel) - Pyramid #MG23450	PYR23450	9.99	Marvel
POP Φιγούρα Vinyl Stonekeeper (Smallfoot) - Funko #31007	UND31007	14.99	Smallfoot
POP! Φιγούρα Vinyl Migo (Smallfoot) - Funko #31005	UND31005	14.99	Smallfoot
POP! Μπρελόκ Deadpool Bathtime – Funko #31734	UND31734	5.99	Deadpool
POP! Μπρελόκ Sailor Moon – Funko #14880	UND14880	5.99	Sailor Moon
POP! Μπρελόκ Mickey's 90th - Band Concert Mickey – Funko #32176	UND32176	6.99	
POP! Μπρελόκ Pennywise (Spider Legs) IT – Funko #31809	UND31809	5.99	IT
POP! Μπρελόκ Pennywise (with wig) IT – Funko #31810	UND31810	6.99	IT
POP! Μπρελόκ Sulley (Monster's Inc.) – Funko #31751	UND31751	5.99	
POP! Φιγούρα Vinyl Claire (Jurassic World) - Funko #31443	UND31443	14.99	Jurassic World
POP! Φιγούρα Vinyl Percy (Smallfoot) - Funko #31003	UND31003	14.99	Smallfoot
POP! Φιγούρα Vinyl Fleem (Smallfoot) - Funko #31004	UND31004	14.99	Smallfoot
Κούπα με αλλαγή σχεδίου Darth Vader (Star Wars R1) - Paladone #3229	PAL03229	14.99	Star Wars
Κούπα Storm Trooper Star Wars (Star Wars) - Paladone #2823	PAL02823	11.99	Star Wars
Κούπα Fett (Star Wars) - Paladone #2686	PAL02686	11.99	Star Wars
Θερμός Stormtrooper (Star Wars) - Paladone #2871	PAL02871	14.99	Star Wars
Κούπα Face Off (Freddy Vs Jason) - Pyramid #MG22634	PYR22634	9.99	
Κούπα Jack Skellington (Nightmare Before Christmas) - Pyramid #MG24424	PYR24424	9.99	
Κούπα Ring Inscription (The Lord of the Rings) - Pyramid #MG23425	PYR23425	9.99	Lord of the Rings
Κούπα με αλλαγή σχεδίου Nightmare Before Christmas - Pyramid #SCMG24622	PYR24622	14.99	The Nightmare Before Christmas
Αυτοκόλλητα Nightmare Before Christmas – Pyramid #PS7336	PYR07336	1.99	The Nightmare Before Christmas
Σουβέρ The Hobbit - Pyramid #CSP0006	PYR00006	5.99	The Hobbit
Q-Fig Φιγούρα Daredevil Marvel - QMx #0015	MVL-0015	22.99	
Σημειωματάριο Α5 Superman - Pyramid #SR72409	PYR72409	14.99	Superman
Σημειωματάριο Α5 Batman - Pyramid #SR72408	PYR72408	14.99	Batman
Σουβέρ DC Comics - Pyramid #CSP00010	PYR00010	5.99	
Αυτοκόλλητα Suicide Squad - Pyramid #PS7303	PYR07303	1.99	
Κούπα Scarface - Pyramid #MG22707	PYR22707	9.99	
Κούπα Scarface Splatter - Pyramid #MG22713	PYR22713	9.99	
Super Heroes The hulkbuster Smash-Up - Lego #76104	LE076104	44.99	Marvel
Κούκλα Albus Dumbledore (Harry Potter) - Mattel #FYM54	MA0FYM54	29.99	Harry Potter
Κούκλα Ron Weasley (Harry Potter) - Mattel #FYM52	MA0FYM52	29.99	Harry Potter
Κούκλα Professor McGonagall (Harry Potter) - Mattel #FYM55	MA0FYM55	29.99	Harry Potter
POP! Φιγούρα Vinyl Beetlejuice Guide Hat - Funko #32319	UND32319	14.99	
#04 Wizbox Assassin's Creed	WizboxAssassinsCreed	39.99	
Tρίαινα Aquaman (DC) - Noble Collection #NN3254	NONN3254	79.99	Aquaman
Βιβλιοστάτης Black Knight (Harry Potter) - Noble Collection #NN8722	NONN8722	79.99	Harry Potter
Βιβλιοστάτης White Knight (Harry Potter) - Noble Collection #NN8723	NONN8723	79.99	Harry Potter
POP! Σετ Φιγούρες Vinyl Marvel Captain America/Red Skull - Funko #32880	UND32880	32.99	
T-Shirt Assassin's Creed Odyssey - Gold Foil Logo #TS019ACOD	TIM019AC	19.99	
Λούτρινο Bowtruckle (Fantastic Beasts) – Noble Collection #NN5089	NONN5089	29.99	Fantastic Beasts
Φιγούρα Bowtruckle (Fantastic Beasts) – Noble Collection #NN5006	NONN5006	11.99	Fantastic Beasts
POP! Φιγούρα Vinyl Master Roshi with Staff (Dragonball Z) - Funko #32260	UND32260	14.99	DragonBall
POP! Φιγούρα Vinyl Gohan Training Outfit (Dragonball Z) - Funko #32259	UND32259	14.99	DragonBall
POP! Φιγούρα Vinyl Bulma (YW) (Dragonball Z) - Funko #32247	UND32247	14.99	DragonBall
POP! Φιγούρα Vinyl Black Phillip (The Witch) - Funko #32306	UND32306	14.99	
POP! Φιγούρα Vinyl Movie Moments Captain Deadpool & Cable (Marvel) – Funko #30972	UND30972	34.99	
Φιγούρα 5 Star: DC Classic- Batman - Funko #32132	UND32132	14.99	DC
Φιγούρα 5 Star: DC Classic- The Joker - Funko #32653	UND32653	14.99	DC
POP! Φιγούρα Vinyl Mickey's 90th - Steamboat Willie Mickey Disney - Funko #32182	UND32182	14.99	
POP! Φιγούρα Vinyl Mickey's 90th - Firefighter Mickey Disney - Funko #32185	UND32185	14.99	
POP! Φιγούρα Vinyl Mickey's 90th - Conductor Mickey Disney - Funko #32186	UND32186	14.99	
POP! Φιγούρα Vinyl Mickey's 90th - Apprentice Mickey Disney - Funko #32184	UND32184	14.99	
Puzzle Dementors at Hogwarts - Noble Collection #NN9464	NONN9464	29.99	Harry Potter
POP! Φιγούρα Vinyl Seto Kaiba (Yu-Gi-Oh!) - Funko #27450	UND27450	14.99	Yu-Gi-Oh!
POP! Φιγούρα Vinyl Blue Eyes White Dragon (Yu-Gi-Oh!) - Funko #27451	UND27451	14.99	Yu-Gi-Oh!
POP! Φιγούρα Vinyl Jack Jack (The Incredibles) - Funko #29203	UND29203	14.99	The Incredibles
POP! Φιγούρα Vinyl Flashing Gremlin (Gremlins) - Funko #32112	UND32112	14.99	Gremlins
POP! Φιγούρα Vinyl Greta (Gremlins) - Funko #32348	UND32348	14.99	Gremlins
POP! Φιγούρα Vinyl Brooklyn (Gargoyles) - Funko #30949	UND30949	14.99	Gargoyles
POP! Φιγούρα Vinyl Yami Yugi (Yu-Gi-Oh!) - Funko #27448	UND27448	19.99	Yu-Gi-Oh!
POP! Φιγούρα Vinyl Pale Man (Pan's Labyrinth) - Funko #32317	UND32317	14.99	Pan's Labyrinth
POP! Φιγούρα Vinyl Violet (The Incredibles) - Funko #29201	UND29201	14.99	The Incredibles
POP! Φιγούρα Vinyl Dark Magician Girl (Yu-Gi-Oh!) - Funko #27452	UND27452	14.99	Yu-Gi-Oh!
POP! Φιγούρα Vinyl Broadway (Gargoyles) - Funko #30950	UND30950	14.99	Gargoyles
POP! Φιγούρα Vinyl Tom (Tom and Jerry) - Funko #32165	UND32165	14.99	Tom and Jerry
POP! Φιγούρα Vinyl Hopper with vines (Stranger Things) - Funko #31022	UND31022	14.99	Stranger Things
POP! Φιγούρα Vinyl Frozone (The Incredibles) - Funko #29206	UND29206	14.99	The Incredibles
Λούτρινο Dobby (Harry Potter) - Noble #NN7216	NONN7216	54.99	Harry Potter
POP! Φιγούρα Vinyl Bronx (Gargoyles) - Funko #30952	UND30952	14.99	Gargoyles
Μινιατούρα Mini Vinyl Mickey's 90th – Funko #25595	UND25595	9.99	
POP! Φιγούρα Vinyl Demona (Gargoyles) - Funko #30951	UND30951	14.99	Gargoyles
POP! Φιγούρα Vinyl Goliath (Gargoyles) - Funko #30947	UND30947	14.99	Gargoyles
Στυλό και φωτιζόμενο ραβδί Harry Potter – Noble Collection #NN8042	NONN8042	19.99	Harry Potter
Στυλό και φωτιζόμενο ραβδί Hermione (Harry Potter) – Noble Collection #NN8044	NONN8044	19.99	Harry Potter
Στυλό και φωτιζόμενο ραβδί Dumbledore (Harry Potter) – Noble Collection #NN8046	NONN8046	19.99	Harry Potter
Στυλό και φωτιζόμενο ραβδί Newt Scamander's (Fantastic Beasts) – Noble Collection #NN5112	NONN5112	19.99	Fantastic Beasts
Δράκος Smug που βγάζει καπνο (Hobbit) - Noble #NN7526	NONN7526	129.00	The Hobbit
POP! Φιγούρα Vinyl Jerry (Tom and Jerry) - Funko #32166	UND32166	19.99	Tom and Jerry
#05 Wizbox Fantastic Beasts	WizboxFantasticBeasts	79.99	
#05 Wizbox Fantastic Beasts	WizboxFantasticBeasts2	64.99	
POP! Φιγούρα Vinyl Pickett (Fantastic Beasts) - Funko #32757	UND32757	14.99	Fantastic Beasts
POP! Φιγούρα Vinyl Grindewald (Fantastic Beasts) - Funko #32752	UND32752	14.99	Fantastic Beasts
POP! Φιγούρα Vinyl Thestral (Fantastic Beasts) - Funko #32753	UND32753	14.99	Fantastic Beasts
POP! Φιγούρα Vinyl Dumbledore (Fantastic Beasts) - Funko #32750	UND32750	24.99	Fantastic Beasts
POP! Φιγούρα Vinyl Newt (Fantastic Beasts) - Funko #32751	UND32751	14.99	Fantastic Beasts
POP! Φιγούρα Vinyl Niffler (Fantastic Beasts) - Funko #32758	UND32758	39.99	Fantastic Beasts
POP! Φιγούρα Vinyl Fauno (Pan's Labyrinth) - Funko #32310	UND32310	14.99	Pan's Labyrinth
POP! Φιγούρα Vinyl Chase Violet (The Incredibles) - Funko #29201	UND29201L	24.99	The Incredibles
POP! Φιγούρα Vinyl Carnage/Cletus Kasady (Marvel: Venom) - Funko #33073	UND33073	14.99	
POP! Φιγούρα Vinyl Venom/Iron Man (Marvel: Venom) - Funko #32687	UND32687	14.99	
POP! Φιγούρα Vinyl Venom/Eddie Brock (Marvel: Venom) - Funko #32685	UND32685	14.99	
POP! Φιγούρα Vinyl Billy at Halloween (Stranger Things) - Funko #30880	UND30880	14.99	Stranger Things
POP! Φιγούρα Vinyl Sally (Nightmare Before Christmas) - Funko #32837	UND32837	14.99	The Nightmare Before Christmas
POP! Φιγούρα Vinyl Obi Wan Kenobi (Star Wars: Clone Wars) - Funko #31796	UND31796	14.99	Star Wars
POP! Φιγούρα Vinyl Chase Newt (Fantastic Beasts) - Funko #32751	UND32751L	26.99	Fantastic Beasts
POP! Φιγούρα Vinyl Yoda (Star Wars: Clone Wars) - Funko #31799	UND31799	14.99	Star Wars
POP! Φιγούρα Vinyl Halloween Town Sora (Kingdom Hearts) - Funko #14958	UND14958	16.99	Kingdom Hearts
Φιγούρα IT Pennywise 1/10 Art Statue - Iron Studios #63034	63034	119.99	IT
Κούκλα Pennywise Talking (IT 2017) - Mezco Toyz #63518	COS63518	139.00	IT
POP! Φιγούρα Vinyl Hudson (Gargoyles) - Funko #30948	UND30948	16.99	Gargoyles
POP! Φιγούρα Vinyl Mulan (Disney) - Funko #5897	UND5897	14.99	
POP! Φιγούρα Vinyl Anakin (Star Wars: Clone Wars) - Funko #31794	UND31794	14.99	Star Wars
Φιγούρα Transformers Cyberverse Ultimate Class Optimus Prime - Hasbro #B1885	HASBE1885	34.99	Transformers
Φιγούρα Bumblebee The Last Knight Masterpiece Transformers - Hasbro #C0892	HASBC0892	109.99	Transformers
Blind Box The Lord of the Rings - Funko #11504	UND11504	7.99	Lord of the Rings
Λούτρινα Harry Potter - Funko #14810	UND14810	19.99	Harry Potter
Μινιατούρα Sam (The Lord of the Rings) - Funko #11504	UND11504L6	9.99	Lord of the Rings
Μινιατούρα Saruman (The Lord of the Rings) - Funko #11504	UND11504L6-1	9.99	Lord of the Rings
Λούτρινα Rick and Morty (9 Σχέδια) - Funko #13624	UND13624	16.99	Rick and Morty
POP! Φιγούρα Vinyl Elastigirl (The Incredibles) - Funko #29199	UND29199	14.99	The Incredibles
POP! Φιγούρα Vinyl Mr. Incredible (The Incredibles) - Funko #29200	UND29200	14.99	The Incredibles
POP! Φιγούρα Vinyl Dash (The Incredibles) - Funko #29202	UND29202	14.99	The Incredibles
POP! Φιγούρα Vinyl Underminer (The Incredibles) - Funko #29208	UND29208	14.99	The Incredibles
POP! Μπρελόκ Dumbo – Funko #31753	UND31753	5.99	
POP! Μπρελόκ Goliath (Gargoyles) – Funko #30958	UND30958	5.99	Gargoyles
POP! Μπρελόκ Jon Snow (Game of Thrones) – Funko #31812	UND31812	5.99	Game of Thrones
POP! Μπρελόκ Daenerys (Game of Thrones) – Funko #31813	UND31813	5.99	Game of Thrones
POP! Φιγούρα Vinyl Guillermo Del Toro – Funko #31839	UND31839	14.99	
Pint Sized Heroes: Marvel Studios 10 - Funko #31938	UND31938	7.49	
Φιγούρα NBC - Jack Skellington - Funko #32852	UND32852	14.99	The Nightmare Before Christmas
Φιγούρα 5 Star NBC - Sally - Funko #32853	UND32853	14.99	The Nightmare Before Christmas
Μινιατούρα Boromir (The Lord of the Rings) - Funko #11504	UND11504L3-1-1	9.99	Lord of the Rings
Μινιατούρα Collum (The Lord of the Rings) - Funko #11504	UND11504L3-1-1-1	9.99	Lord of the Rings
Κούκλα Harry Potter (Harry Potter) - Mattel #FYM50	MA0FYM50	29.99	Harry Potter
Κούκλα Hermione Granger (Harry Potter) - Mattel #FYM51	MA0FYM51	29.99	Harry Potter
Κούκλα Ginny Weasley (Harry Potter) - Mattel #FYM53	MA0FYM53	29.99	Harry Potter
POP! Φιγούρα Vinyl Chupacabra (Fantastic Beasts) - Funko #32754	UND32754	14.99	Fantastic Beasts
POP! Φιγούρα Vinyl Matagot (Fantastic Beasts) - Funko #33558	UND33558	14.99	Fantastic Beasts
POP! Μπρελόκ Baby Niffler (Fantastic Beasts) – Funko #32768	UND32768	5.99	Fantastic Beasts
POP! Μπρελόκ Baby Niffler (Fantastic Beasts) – Funko #32767	UND32767	5.99	Fantastic Beasts
POP! Σετ Φιγούρες Vinyl Baby Nifflers (Fantastic Beasts) - Funko #32755	UND32755	29.99	Fantastic Beasts
Λούτρινα Fantastic Beasts (7 Σχέδια) - Funko #32199	UND32199	16.99	Fantastic Beasts
T-Shirt Deadpool - Who me #CID00146	CID00146	19.99	Deadpool
T-Shirt Gryffindor Quidditch (Harry Potter) #CID17298	CID17298	19.99	Harry Potter
T-Shirt Slytherin Quidditch (Harry Potter) #CID17299	CID17299	19.99	Harry Potter
T-Shirt Hufflepuff Quidditch (Harry Potter) #CID17300	CID17300	19.99	Harry Potter
T-Shirt Ravenclaw Quidditch (Harry Potter) #CID17301	CID17301	19.99	Harry Potter
T-Shirt Dragon Ball-Vegeta #ABY31800	ABY31800	21.99	DragonBall
Τράπουλα Game Of Thrones #HEO28503	HEO28503	9.99	Game of Thrones
Wizbox Ravenclaw	Wizbox Ravenclaw	49.99	
Wizbox Slytherin	Wizbox Slytherin	49.99	
Wizbox Gryffindor	WizboxGryffindor	49.99	
Wizbox Hufflepuff	Wizbox Hufflepuff	49.99	
Super Heroes Mighty Micros: Scarlet Spider vs. Sandman - Lego #76089	LE076089	14.99	Marvel
Μινιατούρες Batman Movie Series 2 - Lego #71020	LE071020	4.99	Batman
T-Shirt Assassin's Creed Odyssey #TS010ACOD	TIM010AC	19.99	
Κούπα Alexios - Assassin's Creed #TIM03277	TIM03277	9.99	Assassin's Creed
Κούπα Kassnadra - Assassin's Creed #TIM03278	TIM03278	9.99	Assassin's Creed
Monopoly Fortnite - Hasbro #E6603	HASBE6603	24.99	Fortnite
Φιγούρα Ghost Rider with Flame Cycle Marvel Legends Series – Hasbro #E0805	HASBE0805	49.99	Marvel
Φιγούρα Black Widow Marvel Legends Series – Hasbro #E0805	HASBE0805-1	49.99	Marvel
Φιγούρα Mighty Muggs Spider-Man Marvel - Hasbro #E2122	HASBE2122	11.99	Marvel
Φιγούρα Mighty Muggs Doctor Strange Marvel - Hasbro #E2122	HASBE2122-1	11.99	Marvel
Φιγούρα Mighty Muggs Black Panther Marvel - Hasbro #E2122	HASBE2122-2	11.99	Marvel
Φιγούρα Mighty Muggs Rocket Raccoon Marvel - Hasbro #E2122	HASBE2122-3	11.99	Marvel
Φιγούρα Mighty Muggs Thor Marvel - Hasbro #E2122	HASBE2122-5	11.99	Marvel
Φιγούρα Mighty Muggs Groot Marvel - Hasbro #E2122	HASBE2122-6	11.99	Marvel
POP! Φιγούρα Vinyl Lord Varys (Game of Thrones) - Funko #34616	UND34616	14.99	Game of Thrones
POP! Φιγούρα Vinyl Yara Greyjoy (Game of Thrones) - Funko #34617	UND34617	14.99	Game of Thrones
POP! Φιγούρα Vinyl Bran Stark (Game of Thrones) - Funko #34618	UND34618	14.99	Game of Thrones
POP! Φιγούρα Vinyl Children of the Forest (Game of Thrones) - Funko #34619	UND34619	14.99	Game of Thrones
POP! Φιγούρα Vinyl Gendry (Game of Thrones) - Funko #34620	UND34620	14.99	Game of Thrones
Puzzle 3D The Knight Bus #WR000507	WR000507	29.99	Harry Potter
POP! Φιγούρα Vinyl Wonder Woman – Funko #11528	UND11528	16.99	Batman
POP! Φιγούρα Vinyl Wonder Woman – Funko #12547	UND12547	16.99	Wonder Woman
POP! Φιγούρα Vinyl Wonder Woman – Funko #12853	UND12853	14.99	
POP! Φιγούρα Vinyl Wonder Woman – Funko #6027 [Damaged Package]	UND06027	14.99	
POP! Φιγούρα Vinyl Wonder Woman – Funko #12543	UND12543	16.99	Wonder Woman
The Last Jedi First Order AT-ST (Star Wars) - Lego #75201	LE075201	74.99	Star Wars
Darth Vader Transformation (Star Wars) - Lego #75183	LE075183	34.99	Star Wars
Φιγούρα Avengers Titan Hero Thor - Hasbro #E0616	HASBE0616	24.99	Avengers: Infinity War
Φιγούρα Spider-Man Avengers Titan Hero - Hasbro #E0608	HASBE0608	24.99	Avengers: Infinity War
POP! Φιγούρα Vinyl Tower Recon Specialist (Fortnite) – Funko #34463	UND34463	14.99	Fortnite
POP! Φιγούρα Vinyl High Rise Assault Trooper (Fortnite) – Funko #34465	UND34465	14.99	Fortnite
POP! Φιγούρα Vinyl Black Knight (Fortnite) – Funko #34467	UND34467	14.99	Fortnite
POP! Φιγούρα Vinyl Moonwalker (Fortnite) – Funko #34469	UND34469	14.99	Fortnite
POP! Φιγούρα Vinyl Skull Trooper (Fortnite) – Funko #34470	UND34470	14.99	Fortnite
POP! Φιγούρα Vinyl Love Ranger (Fortnite) – Funko #34842	UND34842	14.99	Fortnite
POP! Φιγούρα Vinyl Merry Marauder (Fortnite) – Funko #34880	UND34880	14.99	Fortnite
POP! Φιγούρα Vinyl Cuddle Team Leader (Fortnite) – Funko #35705	UND35705	14.99	Fortnite
POP! Φιγούρα Vinyl Omega (Fortnite) – Funko #36017	UND36017	14.99	Fortnite
POP! Φιγούρα Vinyl Brite Bomber (Fortnite) – Funko #36721	UND36721	14.99	Fortnite
POP! Φιγούρα Vinyl Raptor (Fortnite) – Funko #36823	UND36823	14.99	Fortnite
Ραβδί εκπαίδευσης Hermione Granger με φως και ήχο (Harry Potter) – Jakks Pacific #73210	JPA73210	39.99	Harry Potter
Φιγούρα Armored Batman (Batman Vs Superman) - DC Collectables #60323	HEO60323	69.99	
Φιγούρα Jax Teller (Sons of Anarchy) - Mezco #82401	HEO82401	49.99	
Φιγούρα Walter White the Cook με ήχο (Breaking Bad) - The Wonderland Toy #BA102	HEO00102	79.99	Breaking Bad
Φιγούρα Jesse Pinkman (Breaking Bad) - Mezco #45660	COS45660	34.99	Breaking Bad
Φιγούρα Jesse Pinkman (Breaking Bad) - Mezco #52400	HEO52400	24.99	Breaking Bad
Φιγούρα Bishop (Aliens) - Neca #51378	51378	39.99	Aliens
Φιγούρα Superman (Batman Vs Superman) - Jakks Pacific #96241	JPA96241	49.99	
The Joker Batcave Attack - Lego #10753	LE010753	34.99	Batman
Super Heroes Mighty Micros: Nightwing vs. The Joker - Lego #76093	LE076093	12.99	
Φιγούρα Batman (Batman Vs Superman) - Jakks Pacific #96246	JPA96246	39.99	
Σετ κρεμαστό και σκουλαρίκια Golden Snitch (Harry Potter) #CAR41564	CAR41564	19.99	Harry Potter
Σετ κρεμαστό και σκουλαρίκια Deathly Hallows (Harry Potter) #CAR41562	CAR41562	19.99	Harry Potter
Σημειωματάριο Shenron (Dragon Ball) #ABY12000	ABY12000	7.99	One Piece
Κούπα Assassin's Creed Odyssey #ABY51400	ABY51400	9.99	Assassin's Creed
Μπρελόκ One Piece- Wanted Luffy #ABY08000	ABY08000	9.99	One Piece
Μπρελόκ μεταλικό 3D Sorting Hat (Harry Potter) #ABY00800	ABY00800	9.99	Harry Potter
Μπρελόκ Death Note #ABY02400	ABY02400	9.99	Death Note
Σημειωματάριο One Piece- Wanted Luffy #ABY00130	ABY00130	7.99	One Piece
Λούτρινο Zelda (Legend of Zelda) #ABY02100	ΛοABY02100	16.99	Legend of Zelda
Σημειωματάριο The Daily Prophet (Harry Potter) #ABY00140	ABY00140	19.99	Harry Potter
Ραβδί εκπαίδευσης Voldemort με φως και ήχο (Harry Potter) – Jakks Pacific #39837	JPA39837	39.99	Harry Potter
Blind Box Ραβδί Harry Potter σειρά 2 – Jakks Pacific #81931	JPA81931	5.99	Harry Potter
T-Shirt One Piece-Skull with map #ABY04000	ABY04000	21.99	DragonBall
Ο Χάρι Πότερ και η φιλοσοφική λίθος - Επετειακή Έκδοση	ΨΥΧ22476	9.90	Harry Potter
Ο Χάρι Πότερ και η φιλοσοφική λίθος - Εικονογραφημένη Έκδοση	ΨΥΧ21746	29.90	Harry Potter
Ο Harry Potter και η κάμαρα με τα μυστικά - Επετειακή Έκδοση	ΨΥΧ22477	14.40	Harry Potter
Ο Χάρι Πότερ και ο Αιχμάλωτος του Αζκαμπάν - Επετειακή Έκδοση	ΨΥΧ22478	15.50	Harry Potter
Ο Χάρι Πότερ και ο Ημίαιμος Πρίγκιψ - Επετειακή Έκδοση	ΨΥΧ22481	15.50	Harry Potter
Ο Harry Potter και το κύπελλο της φωτιάς - Επετειακή Έκδοση	ΨΥΧ22479	15.50	Harry Potter
Ο Χάρι Πότερ και οι κλήροι του θανάτου - Επετειακή Έκδοση	ΨΥΧ22482	15.50	Harry Potter
Ο Harry Potter και το τάγμα του φοίνικα - Επετειακή Έκδοση	ΨΥΧ22480	16.60	Harry Potter
Φιγούρα Freddy Krueger Ultimate Deluxe Action - Neca #39759	BL0A39759	39.99	A Nightmare on Elm Street
Λούτρινο BB-8 (Star Wars) #UND01905	UND01905	19.99	Star Wars
Marvel Legends Spider-Man: Homecoming - Hasbro #C1406	HASBC1406	29.99	Marvel
Λούτρινο Kylo Ren (Star Wars) #UND01906	UND01906	19.99	Star Wars
Κούπα με αλλαγή σχεδίου Tetris - Paladone #PP0501TT	PAL00501	14.99	Tetris
Κούπα Playstation - Paladone #PP4129PS	PAL04129	14.99	
Λούτρινο Super Mario #GOL11062	GOL11062	9.99	Super Mario
Φωτιστικό Playstation - Paladone #PP4140PS	PAL04140	34.99	
Σημειωματάριο A5 Thanos gauntlet με φως (Avengers: Infinity War) - Pyramid #SR72618	PYR72618	19.99	Avengers
Σημειωματάριο σπιράλ Α5 Super Mario - Pyramid #SR72626	PYR72626	6.99	Super Mario
Σημειωματάριο A5 Venom Face Marvel - Pyramid #SR72707	PYR72707	14.99	Venom
Σημειωματάριο σπιράλ A5 Pennywise &amp; Georgie (IT) - Pyramid #SR72643	PYR72643	4.99	IT
Φωτιστικό Golden Snitch (Harry Potter) - Paladone #PAL03906	PAL03906	29.99	Harry Potter
Κουμπαράς Hogwarts (Harry Potter) - Paladone #PP3305HP	PAL03305	14.99	Harry Potter
Φωτιστικό Deathly Hallows (Harry Potter) - Paladone #PP4217HP	PAL04217	34.99	Harry Potter
Λούτρινο Toad (Super Mario) #GOL11048	GOL11048	9.99	Super Mario
Λούτρινο Luigi (Super Mario) #GOL11055	GOL11055	9.99	Super Mario
Θερμός Call of Duty Black Ops 4 - Paladone #PP4796COD	PAL04796	14.99	Call of Duty
Κούπα με αλλαγή σχεδίου Call of Duty Black Ops 4 – Paladone #PP4795COD	PAL04795	14.99	Call of Duty
Αυτοκόλλητα Call of Duty Black Ops 4 – Paladone #PP4792COD	PAL04792	9.99	Call of Duty
Κούπα μεταλλική Call of Duty – Paladone #PP4070COD	PAL04070	11.99	Call of Duty
Τράπουλα Call of Duty Black Ops 4 – Paladone #PP4793COD	PAL04793	9.99	Call of Duty
Φωτιστικό Call of Duty Black Ops 4 – Paladone #PP4794COD	PAL04794	39.99	Call of Duty
Θερμός Call of Duty – Paladone #PP4791COD	PAL04791	14.99	Call of Duty
POP! Φιγούρα Vinyl Lucius Malfoy (Harry Potter) - Funko #11557	UND11557	29.99	Harry Potter
Bundle Box The Grady Twins	BundleBoxTheGradyTwins	49.99	
Βιβλία Ηarry Potter σε συλλεκτική κασετίνα	ΨΥΧ19454	79.99	Harry Potter
Φωτιστικό Gryffindor (Harry Potter) - Paladone #PP3870HP	PAL03870	29.99	Harry Potter
Κούπα χρωμίου Assassin's Creed - Paladone #PP4097AS	PAL04097	11.99	Assassin's Creed
Σουβέρ μεταλλικά (The Legend of Zelda) - Paladone #PP4124NN	PAL04124	11.99	Legend of Zelda
Κούπα με αλλαγή σχεδίου Sheikah Eye (The Legend of Zelda) - Paladone #PP4169NN	PAL04169	14.99	Legend of Zelda
Κούπα με καπάκι Hogwarts (Harry Potter) - Paladone #PP4543HP	PAL04543	9.99	Harry Potter
Τράπουλα Star Wars - Paladone ##PP4148SW	PAL04148	9.99	Star Wars
Poster Stranger Things (R, U, N) - Pyramid #PP34407	PP34407	3.99	Stranger Things
Κούπα Venom (Black and Bold) Marvel - Pyramid #MGC25302	PYR25302	14.99	Venom
Κούπα Venom Marvel - Pyramid #MG25107	PYR25107	9.99	Venom
Σημειωματάριο Α5 Marvel - Pyramid #SR72650	PYR72650	9.99	
Σημειωματάριο Venom (Lethal Protection) Marvel – Pyramid #SR72708	PYR72708	4.99	Venom
Σημειωματάριο Space Montage Holographic (Avengers: Infinity War) Marvel – Pyramid #SR72655	PYR72655	6.99	Avengers: Infinity War
POP! Φιγούρα Vinyl Legolas (Lord of the Rings) – Funko #33247	UND33247	14.99	Lord of the Rings
POP! Φιγούρα Vinyl Gimli (Lord of the Rings) – Funko #33248	UND33248	19.99	Lord of the Rings
POP! Φιγούρα Vinyl Boromir (Lord of the Rings) – Funko #33249	UND33249	14.99	Lord of the Rings
POP! Φιγούρα Vinyl Dunharrow King (Lord of the Rings) – Funko #33250	UND33250	14.99	Lord of the Rings
POP! Φιγούρα Vinyl Coraline with Cat buddy – Funko #32811	UND32811	14.99	
POP! Φιγούρα Vinyl Galadriel (Lord of the Rings) – Funko #33253	UND33253	14.99	Lord of the Rings
POP! Φιγούρα Vinyl Bob in Scrubs (Stranger Things) - Funko #30878	UND30878	14.99	Stranger Things
POP! Φιγούρα Vinyl Venom/Iron Hulk (Marvel: Venom) – Funko #32690	UND32690	14.99	
POP! Φιγούρα Vinyl Sugar Plum Fairy (The Nutcracker) – Funko #33585	UND33585	14.99	
POP! Φιγούρα Vinyl Loki (Chrome) Marvel – Funko #33435	UND33435	17.99	
POP! Φιγούρα Vinyl Venom/Captain America (Marvel: Venom) – Funko #32686	UND32686	14.99	
POP! Φιγούρα Vinyl Clara (The Nutcracker) – Funko #33586	UND33586	14.99	
Wizbox Pennywise & Georgie	WizboxPennywise&Georgie	34.99	
POP! Φιγούρα Vinyl Orisa (Overwatch) – Funko #32280	UND32280	22.99	Overwatch
POP! Φιγούρα Vinyl Genji (Overwatch) – Funko #32274	UND32274	14.99	Overwatch
POP! Φιγούρα Vinyl Hanzo (Overwatch) – Funko #32272	UND32272	14.99	Overwatch
POP! Φιγούρα Vinyl Eleven Elevated (Stranger Things) - Funko #30855	UND30855	14.99	Stranger Things
POP! Φιγούρα Vinyl Squanchy (Rick and Morty) – Funko #12444	UND12444	14.99	Rick and Morty
POP μπρελόκ Clark Kent (DC Comics) - Funko #21774	UND21774	5.99	
POP! Φιγούρα Vinyl Screenslaver (The Incredibles) - Funko #29207	UND29207	14.99	The Incredibles
POP! Blindbag Μπρελόκ Deadpool- Funko #31144	UND31144	5.99	
POP! Φιγούρα Vinyl Iron Man (Chrome) Marvel – Funko #33434	UND33434	16.99	
POP! Φιγούρα Vinyl Spyro &amp; Sparx (Spyro the Dragon)	UND32763	19.99	
POP! Φιγούρα Vinyl Ana (Overwatch) – Funko #32276	UND32276	14.99	Overwatch
POP! Φιγούρα Vinyl Torbjörn (Overwatch) – Funko #32278	UND32278	14.99	Overwatch
POP! Φιγούρα Vinyl Doomfist (Overwatch) – Funko #32282	UND32282	14.99	Overwatch
#06 Wizbox Fantastic Beasts	#06 Wizbox Fantastic Beasts	49.99	
Bundle Box Darth Vader	BundleBoxDarthVader	49.99	
Marvel Legends Series Infinity Gauntlet - Hasbro #E0491	HASBE0491	119.99	Avengers: Infinity War
Φιγούρα Iron-Spider Legends Series Marvel - Hasbro #E0490	HASBE0490	24.99	Avengers: Infinity War
Φιγούρα Taskmaster Legends Series Marvel - Hasbro #E0490	HASBE0490-1	24.99	Avengers: Infinity War
Φιγούρα Iron Man Legends Series Marvel - Hasbro #E0490	HASBE0490-1-1	24.99	Avengers: Infinity War
Φιγούρα Proxima Midnight Legends Series Marvel - Hasbro #E0490	HASBE0490-2	24.99	Avengers: Infinity War
Φιγούρα Marvel's Songbird Legends Series Marvel - Hasbro #E0490	HASBE0490-2-1	24.99	Avengers: Infinity War
Φιγούρα Wasp Legends Series Marvel - Hasbro #E0490	HASBE0490-2-1-1	24.99	Ant-man
Φιγούρα Venom - Hasbro #E2938	HASBE2938	16.99	Venom
Φιγούρα Carnage- Hasbro #E2938	HASBE2938-1	16.99	Venom
Deadpool Katanas – Hasbro #E2935	HASBE2935	24.99	Deadpool
Φιγούρα Carnage Legends Series Marvel Venom - Hasbro #E2936	HASBE2936	24.99	Venom
Φιγούρα Venom Legends Series Marvel - Hasbro #E2936	HASBE2936-1	24.99	Venom
Φιγούρα Poison Legends Series Marvel - Hasbro #E2936	HASBE2936-1-1	24.99	Venom
Φιγούρα Ant-Man Legends Series Marvel - Hasbro #E0490	HASBE0490-2-1-1-1	24.99	Ant-man
Φιγούρα Spider-Ham Legends Series Marvel - Hasbro #E2936	HASBE2936-1-1-1	24.99	Spider-Man
Φιγούρα Scream Legends Series Marvel - Hasbro #E2936	HASBE2936-1-1-2	24.99	Venom
Φιγούρα Typhoid Mary Legends Series Marvel - Hasbro #E2936	HASBE2936-2	24.99	Venom
Φιγούρα Wolverine Legends Series Marvel - Hasbro #B8343	HASBB8343	29.99	X-Men
Φιγούρα Deadpool Legends Series Marvel - Hasbro #E1563	HASBE1563	24.99	Deadpool
Σετ Φιγούρες Venom &amp; Carnage Marvel - Hasbro #E2937	HASBE2937	24.99	Venom
Φιγούρα Gladiator Legends Series Marvel - Hasbro #B8343	HASBB8343-1	29.99	X-Men
Φιγούρα Cable Legends Series Marvel - Hasbro #E1563	HASBE1563-1	24.99	Deadpool
LEGO Star Wars Jakku Quadjumper (Star Wars) - Lego #75178	LE075178	74.99	Star Wars
Star Wars Bounty Hunter Speeder Bike Battle Pack (Star Wars) - Lego #75167	LE075167	17.99	Star Wars
Φιγούρα Deadpool Legends Series Marvel - Hasbro #E1563	HASBE1563-2	24.99	Deadpool
Φιγούρα Deadpool - Hasbro #E2933	HASBE2933	14.99	Deadpool
Φιγούρα Black Widow Legends Series Marvel - Hasbro #E0490	HASBE0490-4	24.99	Ant-man
Φιγούρα Thor Legends Series Marvel - Hasbro #E0490	HASBE0490-5	24.99	Ant-man
Φιγούρα Magneto Legends Series Marvel - Hasbro #B8343	HASBB8343-5	29.99	X-Men
Φιγούρα Malekith Legends Series Marvel - Hasbro #E0490	HASBE0490-5-1	24.99	Ant-man
Φιγούρα Muliple Man Legends Series Marvel - Hasbro #B8343	HASBB8343-6	29.99	X-Men
T-Shirt Marvel Comics-Venom lethal protector #CID00388	CID00388	19.99	Venom
Φούτερ Lord Of The Rings - Gold Foil Logo #CID01738	CID01738	34.99	Lord of the Rings
Φιγούρα Sabretooth Legends Series Marvel - Hasbro #B8343	HASBB8343-6-1	29.99	X-Men
Φιγούρα Domino Legends Series Marvel - Hasbro #E1563	HASBE1563-2-1	24.99	Deadpool
Φιγούρα X-23 Legends Series Marvel - Hasbro #E1563	HASBE1563-2-1-1	24.99	Deadpool
Φιγούρα Psylocke Legends Series Marvel - Hasbro #B8343	HASBB8343-7	29.99	X-Men
Φιγούρα Storm Legends Series Marvel - Hasbro #B8343	HASBB8343-7-1	29.99	X-Men
Φιγούρα Deathlock Legends Series Marvel - Hasbro #E1563	HASBE1563-8	24.99	Deadpool
Φιγούρα Paladin Legends Series Marvel - Hasbro #E1563	HASBE1563-9	24.99	Deadpool
Σκούφος Harry Potter - Gryffindor Crest #CID17304-S	Hufflepuff	19.99	Harry Potter
Σκούφος Harry Potter - Hufflepuff Crest Beanie #CID17306-S	CID17306-S	19.99	Harry Potter
Σκούφος Harry Potter - Slytherin Crest #CID17310-S	CID17310-S	19.99	Harry Potter
Σκούφος Harry Potter - Ravenclaw #CID17308-S	CID17308-S	19.99	Harry Potter
T-Shirt Aquaman #CID17679	CID17679	19.99	Aquaman
T-shirt Marvel Comics - Carnage Rose #CID17807	CID17807	19.99	Venom
Κούπα Friends - Pyramid #MG22397	PYR22397	9.99	Friends
Κούπα Venom Face (Marvel) - Pyramid #MG25085C	PYR25085	9.99	Venom
Σουβέρ Patronus (Harry Potter) - Pyramid #CSP0021	PYR00021	5.99	Harry Potter
Σημειωματάριο 3D σπιράλ Α5 Marvel – Pyramid #SR71800	PYR71800	6.99	Marvel
Κούπα Deathly Hollows (Harry Potter) - Pyramid #MG24169	PYR24169	9.99	Harry Potter
Σημειωματάριο 3D σπιράλ Α5 Harry/Voldemor - Pyramid #SR72606	PYR72606	6.99	Harry Potter
Κούπα με αλλαγή σχεδίου Fawkes (Harry Potter) - Pyramid #SCMG25060	PYR25060	14.99	Harry Potter
Κούπα με αλλαγή σχεδίου Wanted Sirius Black (Harry Potter) - Pyramid #SCMG25012	PYR25012	14.99	Harry Potter
Κούπα με αλλαγή σχεδίου Deathly Hallows (Harry Potter) - Pyramid #SCMG25011	PYR25011	14.99	Harry Potter
Σετ στυλό ραβδί και μολύβι σκούπα (Harry Potter) – Pyramid #SR72540	PYR72540	7.99	Harry Potter
Αυτοκόλλητα Gryffindor (Harry Potter) – Pyramid #PS7388	PYR07388	1.99	Harry Potter
Αυτοκόλλητα Hufflepuff (Harry Potter) – Pyramid #PS7390	PYR07390	1.99	Harry Potter
Αυτοκόλλητα Ravenclaw (Harry Potter) – Pyramid #PS7389	PYR07389	1.99	Harry Potter
Αυτοκόλλητα Slytherin (Harry Potter) – Pyramid #PS7391	PYR07391	1.99	Harry Potter
Κούπα Battery (Call of Duty: Black Ops 4) – Pyramid #MG25174	PYR25174	9.99	Call of Duty
Κούπα Recon (Call of Duty: Black Ops 4) – Pyramid #MG25176	PYR25176	9.99	Call of Duty
Σημειωματάριο σπιράλ Α5 Call of Duty: Black Ops 4 – Pyramid #SR72728	PYR25174-1	9.99	Call of Duty
Αυτοκόλλητα Fantastic Beasts - Pyramid #PS7419	PYR07419	1.99	Fantastic Beasts
Αυτοκόλλητα Death Note - Pyramid #PS7416	PYR07416	1.99	Death Note
Κούπα Metallica – Pyramid #MG25099	PYR25099	9.99	Metallica
Σπαθί Morgul-blade of the Nazgul (Hobbit) #UCU40296	UCU40296	350.00	The Hobbit
Φιγούρα Transformers MV6 Power Core Feature Hero Bumblebee – Hasbro #E0982	HASBE0982	49.99	Transformers
Φουσκωτός κύριος Καραμέλας Ghostbusters - Playmobil #9221	P0009221	20.99	Ghostbusters
Ghostbusters Αρχηγείο - Playmobil #9219	P0009219	84.99	Ghostbusters
Ghostbusters Γλίτσας & Πωλητής Hot Dog - Playmobil #9222	P0009222	16.99	Ghostbusters
Playmobil Ghostbusters Ecto-1 - Playmobil #9220	P0009220	44.99	Ghostbusters
Κούπα Latte Joker (Batman) #HMB45017	HMB45017	11.99	Batman
Kούπα με αλλαγή σχεδίου Joker (Batman 1966) #HMB45022	HMB45022	9.99	Batman
Κούπα Superman σε κουτί δώρου #HMB42306	HMB42306	9.99	Superman
Κούπα Latte Superman #HMB44311	HMB44311	11.99	Superman
Κούπα Hulk #HMB45305	HMB45305	11.99	Marvel
Κούπα Batman #HMB44194	HMB44194	11.99	Batman
Κούπα Spider-Man #HMB45306	HMB45306	9.99	Spider-Man
Κούπα Doctor Who - Tardis #HMB41803	HMB41803	6.99	Doctor Who
Κούπα με αλλαγή σχεδίου Amazing Spider-Man #HMB45001	HMB45001	11.99	Spider-Man
Κούπα Joker (Batman 1966) #HMB43928	HMB43928	6.99	Batman
Κούπα με αλλαγή σχεδίου Resident Evil #HMB45925	HMB45925	9.99	Resident Evil
POP! Φιγούρα Vinyl Goldar (Power Rangers) – Funko #32801	UND32801	14.99	Power Rangers
POP! Φιγούρα Vinyl Rita Repulsa (Power Rangers) – Funko #32800	UND32800	14.99	Power Rangers
POP! μπρελόκ Winston (Overwatch) - Funko #32784	UND32784	5.99	Overwatch
POP! Φιγούρα Vinyl Knight Rider with Kitt – Funko #32721	UND32721	32.99	
POP! μπρελόκ Lucio (Overwatch) - Funko #32796	UND32796	5.99	Overwatch
POP! μπρελόκ D.Va (Overwatch) - Funko #32792	UND32792	5.99	Overwatch
Σετ Φιγούρες Vynl. Bellatrix &amp; Voldemort (Harry Potter) – Funko #32780	UND32780	24.99	Harry Potter
POP! Φιγούρα Vinyl Monica (Friends) – Funko #32748	UND32748	14.99	Friends
POP! Φιγούρα Vinyl (Chase) Monica (Friends) – Funko #32748	UND32748L	26.99	Friends
POP! Φιγούρα Vinyl Ross (Friends) – Funko #32746	UND32746	24.99	Friends
POP! Φιγούρα Vinyl Phoebe as Supergirl (Friends) – Funko #32749	UND32749	14.99	Friends
POP! Φιγούρα Vinyl Coraline – Funko #32813	UND32813	14.99	
POP! Φιγούρα Vinyl (Chase) Coraline – Funko #32813	UND32813L	26.99	
Rock Candy Φιγούρα Rapunzel (Disney) - Funko #33531	UND33531	16.99	
POP! Φιγούρα Vinyl Wreck-It Ralph – Funko #33403	UND33403	14.99	
POP! Φιγούρα Vinyl Fun Bun (Wreck-It Ralph) – Funko #33418	UND33418	14.99	
POP! Φιγούρα Vinyl Darth Vader Holiday (Star Wars) – Funko #33884	UND33884	14.99	
POP! Φιγούρα Vinyl (Chase) Darth Vader Holiday (Star Wars) – Funko #33884	UND33884L	26.99	
POP! Φιγούρα Vinyl Travis Barker (Blink 182) – Funko #32692	UND32692	14.99	
POP! Φιγούρα Vinyl Mark Hoppus (Blink 182) – Funko #32693	UND32693	14.99	
Infinity Gauntlet Avengers Marvel - Hot Toys #903359	HOT903359	139.99	Avengers: Infinity War
POP! Φιγούρα Vinyl Rachel (Friends) – Funko #32747	UND32747	24.99	Friends
POP! Φιγούρα Vinyl Joey in Chandler’s Clothes (Friends) – Funko #32745	UND32745	14.99	Friends
POP! Φιγούρα Vinyl Chandler (Friends) – Funko #32744	UND32744	14.99	Friends
POP! Φιγούρα Vinyl The Young Grinch – Funko #33024	UND33024	14.99	
POP! Φιγούρα Vinyl Cindy-Lou Who (The Young Grinch) – Funko #33025	UND33025	14.99	
Blind Box Nightmare Before Christmas – Funko #32850	UND32850	7.99	The Nightmare Before Christmas
POP! Φιγούρα Vinyl Gabriel Jesus (Manchester City) – Funko #29212	UND29212	14.99	
POP! Φιγούρα Vinyl Kevin De Bruyne (Manchester City) – Funko #29214	UND29214	14.99	
POP! Μπρελόκ Baby Niffler (Fantastic Beasts) – Funko #32769	UND32769	5.99	Fantastic Beasts
POP! Μπρελόκ Baby Niffler (Fantastic Beasts) – Funko #32770	UND32770	5.99	Fantastic Beasts
POP! Μπρελόκ Thestral (Fantastic Beasts) – Funko #32772	UND32772	5.99	Fantastic Beasts
Wizbox Dumbledore's Army Side	WizboxDumbledore'sArmySide	89.99	
Wizbox Death Eaters Side	WizboxDeathEatersSide	89.99	
Κούπα Batman #HMB42307	HMB42307	8.99	Batman
"Βάση με στυλό που αιωρείται ""Nimbus 2000"" (Ηarry Potter) #ABY70000"	ABY70000	29.99	Harry Potter
Κούπα με αλλαγή σχεδίου Game of Thrones (Westeros Map) #HMB45217	HMB45217	9.99	Game of Thrones
Κούπα με αλλαγή σχεδίου Game of Thrones (Daenerys) #HMB45251	HMB45251	9.99	Game of Thrones
Κούπα με αλλαγή Game of Thrones (Tyrion Lanister) #HMB45252	HMB45252	9.99	Game of Thrones
Kούπα μπύρας Game of Thrones (Stark) #HMB45220	HMB45220	29.99	Game of Thrones
Θερμός Game of Thrones #HMB45249	HMB45249	12.99	Game of Thrones
Ραβδί Dumbledore (Fantastic Beasts) - Noble Collection #NN9906	NONN9906	42.99	Fantastic Beasts
Ραβδί Grindelwald (Fantastic Beasts) - Noble Collection #NN8086	NONN8086	42.99	Fantastic Beasts
POP! Φιγούρα Vinyl Obelix - Funko #5549	UND05549	24.99	
POP! Φιγούρα Vinyl Mary Jane (Spider-Man) – Funko #30682	UND30682	14.99	Spider-Man
POP! Φιγούρα Vinyl Predator Hound (The Predator) – Funko #31305	UND31305	14.99	Predator
POP! Φιγούρα Vinyl (Chase) Predator Hound (The Predator) – Funko #31305	UND31305L	26.99	Predator
Φιγούρα 5 Star Pennywise - Funko #34009	UND34009	14.99	IT
Φιγούρα 5 Star Dustin (Stranger Things)- Funko #35053	UND35053	14.99	
T-Shirt Nifflers (Fantastic Beasts) #CID17897	CID17897	19.99	Fantastic Beasts
Σκούφος Deathly Hallows (Harry Potter) #CID17312-S	CID17312-S	19.99	Harry Potter
Kασκόλ Slytherin (Harry Potter) #CID8205-S	CID8205-S	19.99	Harry Potter
POP! Φιγούρα Vinyl Witch King (Lord of the Rings) – Funko #33251	UND33251	14.99	Lord of the Rings
Σετ φιγούρες Groot &amp; Raccoon Avengers Marvel - Hasbro #E0563	HASBE0563	14.99	Avengers: Infinity War
Φιγούρα Hulk Avengers Marvel - Hasbro #E0563	HASBE0563-1	14.99	Avengers: Infinity War
Φιγούρα Iron Man Avengers Marvel - Hasbro #E0563	HASBE0563-2	14.99	Avengers: Infinity War
Φιγούρα Captain America Avengers Marvel - Hasbro #E0563	HASBE0563-3	14.99	Avengers: Infinity War
Φιγούρα Hulkbuster Avengers Marvel - Hasbro #E0563	HASBE0563-3-1	14.99	Avengers: Infinity War
Κουτί με διάφορα αντικείμενα Karate Kid #HEO51025	HEO51025	19.99	Karate Kit
Σημειωματάριο Α5 The Marauder's Map #HEO45056	HEO45056	11.99	Harry Potter
Bundle Box Monica	BundleBoxDarthMonica	49.99	
POP! Φιγούρα Vinyl Powerline (Disney) – Funko #29571	UND26571	16.99	
POP! Φιγούρα Vinyl Daffy Duck (Looney Tunes) – Funko #21973	UND21973	14.99	
Φιγούρα 5 Star Chucky- Funko #34011	UND34011	14.99	
Φιγούρα 5 Star Jason Voorhees - Funko #34012	UND34012	14.99	
Φιγούρα 5 Star Freddy Krueger (A Nightmare on Elm Street) - Funko #34010	UND34010	14.99	
Φιγούρα Wolverine Marvel Legends Series – Hasbro #E0805	HASBE0805-2	49.99	Marvel
Φανταστικά ζώα - Τα εγκλήματα του Γρίντελβαλντ	ΨΥΧ19468-1	15.50	
Κούπα Spoonfull of Sugar (Mary Poppins) - Pyramid #MG25306	PYR25306	9.99	
Αυτοκόλλητα Hogwarts (Harry Potter) – Pyramid #PS7224	PYR07324	1.99	
Mini Epics Vinyl Figure The Witch-King (Lord of the Rings) – Weta Collectibles #62641	62641	53.99	Lord of the Rings
T-Shirt PUBG logo	T-Shirt PUBG logo	19.99	
Ζακέτα PUBG logo	ΖακέταPUBGlogo	39.99	
Κούκλα Chucky που μιλάει - Mezco Toys #78003	HEO78003	139.00	Child's Play
Κούπα με Αλλαγή Σχεδίου Aquaman - Pyramid #25061	PYR25061	14.99	
Σημειωματάριο Α5 Tardis (Doctor Who) - Pyramid #SR72167	PYR72167	14.99	Doctor Who
Κούπα The Don (The Godfather) - Pyramid #MG22406	PYR22406	9.99	
Κούπα Gringotts (Harry Potter) - Pyramid #FMG25017	PYR25017	14.99	Harry Potter
Σημειωματάριο σπιράλ Α5 Hill (Nightmare Before Christmas) - Pyramid #SR72658	PYR72658	4.99	The Nightmare Before Christmas
Chocolate Frog ρέπλικα (Harry Potter) - Noble Collection #NN7428	NONN7428	20.99	Harry Potter
Batarang (Batman) - Noble Collection #NN4129	NONN4129	71.99	Batman
Deluminator του Dumbledore (Harry Potter) - Noble Collection #NN7268	NONN7268	79.99	Harry Potter
Βιβλιοστάτης Dobby (Harry Potter) - Noble Collection #NN7579	NONN7579	55.99	Harry Potter
POP! Φιγούρα Vinyl Fwooper (Fantastic Beasts) - Funko #33110	UND33110	16.99	Fantastic Beasts
POP! Φιγούρα Vinyl Rick's Ship (Space Cruiser) - Funko #23811	UND23811	39.99	Rick and Morty
Q-Fig Φιγούρα Batman LC Exclusive - QMx #DCC-0001A	DCC-0001A	14.99	
Σκάκι Lord Of The Rings - Noble Collection #NN2990	NONN2990	730	Lord of the Rings
Mεταλλικό στυλό Niffler (Fantastic Beasts) - Noble Collection #NN5128	NONN5128	24.99	Fantastic Beasts
Mεταλλικό στυλό Bowtruckle (Fantastic Beasts) - Noble Collection #NN5130	NONN5130	24.99	Fantastic Beasts
Φανάρι του Hagrid (Harry Potter) - Noble Collection #NN7910	NONN7910	89.00	Harry Potter
Λούτρινο Baby Niffler (Fantastic Beasts) – Noble Collection #NN8092	NONN8092	29.99	Fantastic Beasts
Κρεμαστό Gellert Grindelwald (Fantastic Beasts) - Noble Collection #NN8096	NONN8096	69.99	Fantastic Beasts
Σελιδοδείκτες Fantastic Beasts - Noble Collection #NN7553	NONN7553	41.99	Fantastic Beasts
Λούτρινο Baby Niffler Grey (Fantastic Beasts) – Noble Collection #NN8002	NONN8002	29.99	Fantastic Beasts
Ραβδί Skender (Fantastic Beasts) - Noble Collection #NN8083	NONN8083	42.99	Fantastic Beasts
Ραβδί Theseus Scamander (Fantastic Beasts) – Noble Collection #NN8081	NONN8081	42.99	Fantastic Beasts
Action Φιγούρα Skull Trooper (Fortnite) – McFarlane Toys #MCF10602-2	MCF10602-2	34.99	Fortnite
Mεταλλικό στυλό Thunderbird (Fantastic Beasts) - Noble Collection #NN5135	NONN5135	24.99	Fantastic Beasts
Mεταλλικό στυλό Demiguise (Fantastic Beasts) - Noble Collection #NN5137	NONN5137	24.99	Fantastic Beasts
T-Shirt Deadpool-Unicorn (Marvel) #CID00114	CID00114	19.99	Deadpool
Ραβδί Leta Lestrange (Fantastic Beasts) – Noble Collection #NN8071	NONN8071	42.99	Fantastic Beasts
Ραβδί Spielman (Fantastic Beasts) – Noble Collection #NN8073	NONN8073	42.99	Fantastic Beasts
Ραβδί Abernathy (Fantastic Beasts) – Noble Collection #NN8077	NONN8077	42.99	Fantastic Beasts
Ραβδί Nicolas Flamel (Fantastic Beasts) – Noble Collection #NN8079	NONN8079	42.99	Fantastic Beasts
Action Φιγούρα Black Knight (Fortnite) – McFarlane Toys #MCF10604-6	HEO10604	34.99	Fortnite
Action Φιγούρα Raptor (Fortnite) – McFarlane Toys #MCF10603-9	HEO10603	34.99	Fortnite
Action Φιγούρα Cuddle Team Leader (Fortnite) – McFarlane Toys #MCF10601-5	MCF10601-5	34.99	Fortnite
POP! Φιγούρα Vinyl Clara's Memorial TARDIS (Doctor Who) - Funko #33284	UND33284	22.99	Doctor Who
POP! Φιγούρα Vinyl Thor (Chrome) Marvel – Funko #33518	UND33518	17.99	
POP! Φιγούρα Vinyl Soldier Heartless (Kingdom Hearts) – Funko #34056	UND34056	14.99	
POP! Φιγούρα Vinyl Alfred Hitchcock – Funko #33183	UND33183	24.99	
POP! Φιγούρα Vinyl Thirteenth Doctor (Doctor Who) - Funko #32828	UND32828	14.99	Doctor Who
POP! Φιγούρα Vinyl Missy (Doctor Who) - Funko #32830	UND32830	14.99	Doctor Who
POP! Φιγούρα Vinyl Kubo with Little Hanzo (Kubo) - Funko #32827	UND32827	14.99	
POP! Φιγούρα Vinyl Monkey (Kubo) - Funko #32829	UND32829	14.99	
POP! Φιγούρα Vinyl Cartman (South Park) - Funko #32861	UND32861	14.99	
POP! Φιγούρα Vinyl Chef (South Park) - Funko #32859	UND32859	14.99	
POP! Φιγούρα Vinyl Kenny (South Park) - Funko #32860	UND32860	14.99	
Φιγούρα 5 Star: Harry Potter: Hagrid - Funko #31310	UND31310	24.99	Harry Potter
POP! Φιγούρα Vinyl Luke Cage Marvel - Funko #11098	UND11098	14.99	Daredevil
POP! Φιγούρα Vinyl Praetorian Guard (Star Wars) – Funko #14755	UND14755	16.99	
POP! Φιγούρα Vinyl MacGyver – Funko #32697	UND32697	14.99	
Λούτρινο Shadow Freddy (Five Nights at Freddy's) - Funko #8993	UND08993	16.99	Five Nights at Freddy's
POP! Μπρελόκ The Flash (Justice League) – Funko #13791	UND13791	5.99	Justice League
Φιγούρα 5 Star: Eleven (Stranger Things) - Funko #35054	UND35054	14.99	Harry Potter
POP! Μπρελόκ Black Deadpool (Marvel) – Funko #7512	UND07512	14.99	Deadpool
POP! Μπρελόκ Ant-Man (Marvel) – Funko #30973	UND30973	5.99	Ant-man
POP! Μπρελόκ Playtime-Deadpool Bath Robe (Marvel)- Funko #31733	UND31733	5.99	Deadpool
POP! Φιγούρα Vinyl Genie with Lamp (Disney: Aladdin) - Funko #35757	UND35757	14.99	
POP! Φιγούρα Vinyl Prince Ali (Disney: Aladdin) - Funko #35758	UND35758	14.99	
POP! Φιγούρα Vinyl Mohamed Salah (Liverpool) - Funko #29217	UND29217	14.99	
POP! Φιγούρα Vinyl Denver (Money Heist) - Funko #36001	UND36001	14.99	Money Heist
POP! Φιγούρα Vinyl Peter Parker (Spider-Man) Marvel - Funko #34755	UND34755	14.99	Spider-Man
POP! Φιγούρα Vinyl Groot with Lights &amp; Ornaments Marvel - Funko #33982	UND33982	29.99	
POP! Φιγούρα Vinyl Miles Morales (Spider-Man) Marvel - Funko #33976	UND33976	14.99	Spider-Man
POP! Φιγούρα Vinyl Sora (Kingdom Hearts) – Funko #34052	UND34052	14.99	Kingdom Hearts
POP! Φιγούρα Vinyl Hedwig (Harry Potter) - Funko #35510	UND35510	14.99	Harry Potter
POP! Φιγούρα Vinyl (Chase) Yesss (Wreck-It Ralph) – Funko #33414	UND33414L	24.99	
POP! Φιγούρα Vinyl Yesss (Wreck-It Ralph) – Funko #33414	UND33414	14.99	
POP! Φιγούρα Vinyl The Flash - Funko #32116	UND32116	14.99	The Flash
POP! Φιγούρα Vinyl Lord Zedd (Power Rangers) – Funko #32803	UND32803	14.99	Power Rangers
POP! Φιγούρα Vinyl Mera (Aquaman) - Funko #31178	UND31178	14.99	Aquaman
POP! Φιγούρα Vinyl Mickey's 90th - Band Concert Disney - Funko #32190	UND32190	14.99	
POP! Φιγούρα Vinyl Mickey's 90th - Plane Crazy Disney - Funko #32191	UND32191	14.99	
POP! Φιγούρα Vinyl Mickey (Kingdom Hearts) - Funko #34054	UND34054	14.99	Kingdom Hearts
POP! Φιγούρα Vinyl Harry Potter - Funko #34424	UND34424	14.99	Harry Potter
POP! Φιγούρα Vinyl Hagrid with Cake (Harry Potter) - Funko #35508	UND35508	22.99	Harry Potter
POP! Φιγούρα Vinyl Notorious B.I.G. with Crown – Funko #31550	UND31550	14.99	
POP! Φιγούρα Vinyl Notorious B.I.G. in jersey – Funko #31554	UND31554	14.99	
POP! Φιγούρα Vinyl Hulk with Stocking & Plush Marvel - Funko #33984	UND33984	14.99	
POP! Φιγούρα Vinyl Groot with Stormbreaker (Infinity War) Marvel - Funko #35773	UND35773	14.99	Avengers: Infinity War
POP! Φιγούρα Vinyl Zen-Oh (Dragon Ball Super) - Funko #29499	UND29499	16.99	DragonBall
POP! Φιγούρα Vinyl Ron Weasley (Harry Potter) - Funko #35517	UND35517	14.99	Harry Potter
POP! Φιγούρα Vinyl Jasmine in Disguise (Disney: Aladdin) - Funko #35754	UND35754	14.99	Aladdin
POP! Φιγούρα Vinyl (Chase) Jasmine in Disguise (Disney: Aladdin) - Funko #35754	UND35754L	24.99	Aladdin
Bundle Box Jasmine	BundleBoxJasmine	49.99	
POP! Φιγούρα Vinyl Dobby (Harry Potter) - Funko #35512	UND35512	14.99	Harry Potter
POP! Φιγούρα Vinyl Spider-Man with Ugly Sweater Marvel - Funko #33983	UND33983	14.99	
POP! Φιγούρα Vinyl Fix-It Felix (Wreck-It Ralph) – Funko #33416	UND33416	14.99	
POP! Φιγούρα Vinyl Donald (Monster's Inc.) (Kingdom Hearts) - Funko #34059	UND34059	14.99	Kingdom Hearts
POP! Φιγούρα Vinyl Mickey's 90th - Holiday Mickey - Funko #35753	UND35753	14.99	
POP! Φιγούρα Vinyl Bucky with Weapon (Infinity War) Marvel - Funko #35775	UND35775	14.99	Avengers: Infinity War
Φιγούρα 5 Star: Harry Potter: Snape - Funko #31440	UND31440	24.99	Harry Potter
Rock Candy Φιγούρα Jasmine (Disney) - Funko #33527	UND33527	16.99	
POP! Φιγούρα Vinyl Jay Garrick (The Flash) - Funko #33955	UND33955	14.99	The Flash
POP! Φιγούρα Vinyl Vanellope (Wreck-It Ralph) – Funko #33411	UND33411	14.99	
POP! Φιγούρα Vinyl Prowler (Spider-Man) Marvel – Funko #33980	UND33980	14.99	Spider-Man
Rock Candy Φιγούρα Mulan (Disney) - Funko #33523	UND33523	16.99	
POP! Φιγούρα Vinyl Peggy Bundy (Married with Children) – Funko #32221	UND32221	14.99	
POP! Φιγούρα Vinyl (Chase) Peggy Bundy (Married with Children) – Funko #32221	UND32221L	24.99	
Rock Candy Φιγούρα Belle (Disney) - Funko #33528	UND33528	16.99	
POP Φιγούρα Mega Man (Mega Man) - Funko #33637	UND33637	14.99	
POP! Φιγούρα Vinyl Arthur Curry (Aquaman) – Funko #31176	UND31176	14.99	Aquaman
POP! Φιγούρα Vinyl Sora (Monster's Inc.) (Kingdom Hearts) - Funko #34057	UND34057	14.99	Kingdom Hearts
POP! Φιγούρα Vinyl Green Goblin (Spider-Man) Marvel – Funko #33979	UND33979	14.99	Spider-Man
POP! Φιγούρα Vinyl Hermione Granger (Harry Potter) - Funko #35509	UND35509	14.99	Harry Potter
POP! Φιγούρα Vinyl Captain America (Chrome) Marvel – Funko #33515	UND33515	17.99	
POP! Φιγούρα Vinyl Aquaman – Funko #31177	UND31177	14.99	Aquaman
POP! Φιγούρα Vinyl Banner with Hulk Head (Infinity War) Marvel - Funko #35776	UND35776	14.99	Avengers: Infinity War
POP! Φιγούρα Vinyl Black Manta (Aquaman) – Funko #31183	UND31183	14.99	Aquaman
POP! Φιγούρα Vinyl Vanitas (Kingdom Hearts) - Funko #34055	UND34055	14.99	Kingdom Hearts
POP! Φιγούρα Vinyl Vibe (The Flash) - Funko #32118	UND32118	14.99	The Flash
POP! Φιγούρα Vinyl Slick Morty (Rick and Morty) – Funko #35591	UND35591	14.99	Rick and Morty
POP! Φιγούρα Vinyl Bud Bundy (Married with Children) – Funko #32227	UND32227	14.99	
POP! Φιγούρα Vinyl Al Bundy with Remote (Married with Children) – Funko #32224	UND32224	14.99	
POP! Φιγούρα Vinyl Kelly Bundy (Married with Children) – Funko #32225	UND32225	14.99	
POP! Φιγούρα Vinyl Taffyta (Wreck-It Ralph) – Funko #33417	UND33417	14.99	
Rock Candy Φιγούρα Moana (Disney) - Funko #33526	UND33526	16.99	
Φιγούρα 5 Star: Harry Potter: Hermione - Funko #31311	UND31311	16.99	Harry Potter
Σετ Φιγούρες Vynl. Lilo & Stitch Disney – Funko #33373	UND33373	24.99	
POP! Φιγούρα Vinyl Miles Morales (Spider-Man) Marvel – Funko #33977	UND33977	14.99	Spider-Man
POP! Φιγούρα Vinyl Knowsmore (Wreck-It Ralph) – Funko #33415	UND33415	14.99	
Bundle Box Stan Lee	BundleBoxStanLee	49.99	
POP! Φιγούρα Vinyl Goofy (Monster’s Inc.) (Kingdom Hearts) - Funko #34058	UND34058	14.99	Kingdom Hearts
Μπρελόκ Overwatch Logo #GAY3183	GAY3183	9.99	Overwatch
Κούπα Overwatch Logo #GAY3213	GAY3213	9.99	Overwatch
POP! Φιγούρα Vinyl Spider-Gwen (Spider-Man) Marvel – Funko #33981	UND33981	14.99	Spider-Man
POP! Φιγούρα Vinyl Santa Yoda Holiday (Star Wars) – Funko #33885	UND33885	14.99	
POP! Φιγούρα Vinyl Teacher Rick (Rick and Morty) – Funko #35590	UND35590	14.99	Rick and Morty
POP! Φιγούρα Vinyl Kid Flash (The Flash) - Funko #32117	UND32117	14.99	The Flash
T-Shirt God of War logo #GAY6245	GAY6245	19.99	
POP! Φιγούρα Vinyl Max The Dog (The Young Grinch) – Funko #33027	UND33027	14.99	
POP! Φιγούρα Vinyl Orm (Aquaman) – Funko #31181	UND31181	14.99	Aquaman
POP! Φιγούρα Vinyl Roberto Firmino (Liverpool) - Funko #29216	UND29216	14.99	
POP! Φιγούρα Vinyl Betty Boop with Pudgy - Funko #33432	UND33432	14.99	
Μπλούζα Φούτερ με κουκούλα God Of War Logo #GAY6262	GAY6262	39.99	
Bundle Box Yesss	BundleBoxYesss	49.99	
Bundle Box Peggy Bundy	BundleBoxPeggyBundy	49.99	
Rock Candy Φιγούρα Comfy Princesses - Ariel Disney - Funko #33529	UND33529	16.99	
Σετ Φιγούρες Pennywise, Bill & Georgie (It 2017) - Funko #30006	UND30006	29.99	IT
Σετ Φιγούρες Pennywise, Ben & Beverly (It 2017) - Funko #30011	UND30011	29.99	IT
Σετ Φιγούρες Pennywise, Richie &amp; Eddie (It 2017) - Funko #30012	UND30012	29.99	IT
Blind Box Wreck-It-Ralph (Disney) – Funko #33427	UND33427	7.99	
Blind Box Fantastic Beasts – Funko #32781	UND32781	7.99	
Στυλό με φιγούρα Pennywise - Funko #33895	UND33895	4.99	ΙΤ
Blind Box Spider-Man Animated (Marvel) - Funko #34757	UND34757	7.99	
POP! Φιγούρα Vinyl Monica with Turkey (Friends) – Funko #33378	UND33378	16.99	Friends
Blind Box IT - Funko #30609	UND30609	7.99	
Blind Box Aquaman (DC) - Funko #31190	UND31190	7.99	
Mπρελόκ Rockstar Foxy (FNAF Pizza Sim) - Funko #32154	UND32154	5.99	Five Nights at Freddy's
POP! μπρελόκ Pharah (Overwatch) - Funko #32791	UND32791	5.99	Overwatch
POP! Φιγούρα Vinyl Rex (Fortnite) – Funko #34957	UND34957	14.99	Fortnite
POP! Φιγούρα Vinyl Dark Voyager (Fortnite) – Funko #34991	UND34991	14.99	Fortnite
POP! Φιγούρα Vinyl Uta (Tokyo Ghoul) – Funko #26030	UND26030	14.99	Tokyo Ghoul
POP! Φιγούρα Vinyl Rize (Tokyo Ghoul) – Funko #26031	UND26031	14.99	Tokyo Ghoul
POP! Φιγούρα Vinyl Hideyoshi (Tokyo Ghoul) – Funko #33967	UND33967	14.99	Tokyo Ghoul
Στυλό Gryffindor (Harry Potter) #CAR00022	CAR00022	5.99	Harry Potter
Στυλό Slytherin (Harry Potter) #CAR00023	CAR00023	5.99	Harry Potter
Στυλό Hufflepuff (Harry Potter) #CAR00024	CAR00024	5.99	Harry Potter
Στυλό Ravenclaw (Harry Potter) #CAR00025	CAR00025	5.99	Harry Potter
Action Φιγούρα Omega (Fortnite) – McFarlane Toys #MCF10606-0	MCF10606-0	34.99	Fortnite
Action Φιγούρα Carbide (Fortnite) – McFarlane Toys #MCF10608-4	MCF10608-4	34.99	Fortnite
Kούπα Sons of Anarchy Logo - Pyramid #MG22883	PYR22883	9.99	Sons of Anarchy
Kούπα Fight Club Spray - Pyramid #MG23024	PYR23024	9.99	Fight Club
Kούπα SNES Controller Nintendo - Pyramid #MG24725	PYR24725	9.99	Nintendo
Kούπα Its A Me Mario - Pyramid #MG24845	PYR24845	9.99	Super Mario
Kούπα Expecto Patronum (glow in the dark) - Pyramid #SCMG24956	PYR24956	14.99	Harry Potter
Kούπα L Death Note - Pyramid #MG25039	PYR25039	9.99	Death Note
Kούπα How you Doin' Dots - Pyramid #MG25103	PYR25103	9.99	Friends
Kούπα 3D Amortentia Love Potion - Pyramid #SCMG25109	PYR25109	14.99	Harry Potter
Kούπα 3D Venom Head - Pyramid #SCMG25111	PYR25111	19.99	Venom
Kούπα 3D Deadpool Head - Pyramid #SCMG25118	PYR25118	19.99	Deadpool
Kούπα Spyro Good Dragon - Pyramid #MG25145	PYR25145	9.99	Spyro the Dragon
Κούπα Winnie the Pooh Bounce - Pyramid #MG25205	PYR25205	9.99	Winnie the Pooh
